[
  {
    "diameter_inch": "2-3/8",
    "diameter_mm": "60,3",
    "Iadc_code": "221",
    "name": "S22",
    "pin_size": "A-Rod",
    "flushing": "Center"
  },
  {
    "diameter_inch": "2-3/8",
    "diameter_mm": "60,3",
    "Iadc_code": "311",
    "name": "S31",
    "pin_size": "A-Rod",
    "flushing": "Center"
  },
  {
    "diameter_inch": "2-3/8",
    "diameter_mm": "60,3",
    "Iadc_code": "631Y",
    "name": "S63",
    "pin_size": "A-Rod",
    "flushing": "Center"
  },
  {
    "diameter_inch": "2-3/8",
    "diameter_mm": "60,3",
    "Iadc_code": "631Y",
    "name": "S63B",
    "pin_size": "A-Rod",
    "flushing": "Center"
  },
  {
    "diameter_inch": "2-3/8",
    "diameter_mm": "60,3",
    "Iadc_code": "731Y",
    "name": "S73",
    "pin_size": "A-Rod",
    "flushing": "Center"
  },
  {
    "diameter_inch": "2-3/8",
    "diameter_mm": "60,3",
    "Iadc_code": "731Y",
    "name": "S73B",
    "pin_size": "A-Rod",
    "flushing": "Center"
  },
  {
    "diameter_inch": "2-3/8",
    "diameter_mm": "60,3",
    "Iadc_code": "831Y",
    "name": "S83B",
    "pin_size": "A-Rod",
    "flushing": "Center"
  },
  {
    "diameter_inch": "2-1/2",
    "diameter_mm": "63,5",
    "Iadc_code": "221",
    "name": "S22",
    "pin_size": "AW-Rod",
    "flushing": "Center"
  },
  {
    "diameter_inch": "2-1/2",
    "diameter_mm": "63,5",
    "Iadc_code": "311",
    "name": "S31",
    "pin_size": "AW-Rod",
    "flushing": "Center"
  },
  {
    "diameter_inch": "2-1/2",
    "diameter_mm": "63,5",
    "Iadc_code": "631Y",
    "name": "S63",
    "pin_size": "AW-Rod",
    "flushing": "Center"
  },
  {
    "diameter_inch": "2-1/2",
    "diameter_mm": "63,5",
    "Iadc_code": "631Y",
    "name": "S63B",
    "pin_size": "AW-Rod",
    "flushing": "Center"
  },
  {
    "diameter_inch": "2-1/2",
    "diameter_mm": "63,5",
    "Iadc_code": "731Y",
    "name": "S73",
    "pin_size": "AW-Rod",
    "flushing": "Center"
  },
  {
    "diameter_inch": "2-1/2",
    "diameter_mm": "63,5",
    "Iadc_code": "731Y",
    "name": "S73B",
    "pin_size": "AW-Rod",
    "flushing": "Center"
  },
  {
    "diameter_inch": "2-1/2",
    "diameter_mm": "63,5",
    "Iadc_code": "221",
    "name": "S22",
    "pin_size": "N42",
    "flushing": "Center"
  },
  {
    "diameter_inch": "2-1/2",
    "diameter_mm": "63,5",
    "Iadc_code": "311",
    "name": "S31",
    "pin_size": "N42",
    "flushing": "Center"
  },
  {
    "diameter_inch": "2-1/2",
    "diameter_mm": "63,5",
    "Iadc_code": "631Y",
    "name": "S63",
    "pin_size": "N42",
    "flushing": "Center"
  },
  {
    "diameter_inch": "2-1/2",
    "diameter_mm": "63,5",
    "Iadc_code": "631Y",
    "name": "S63B",
    "pin_size": "N42",
    "flushing": "Center"
  },
  {
    "diameter_inch": "2-1/2",
    "diameter_mm": "63,5",
    "Iadc_code": "731Y",
    "name": "S73",
    "pin_size": "N42",
    "flushing": "Center"
  },
  {
    "diameter_inch": "2-1/2",
    "diameter_mm": "63,5",
    "Iadc_code": "731Y",
    "name": "S73B",
    "pin_size": "N42",
    "flushing": "Center"
  },
  {
    "diameter_inch": "2-1/2",
    "diameter_mm": "63,5",
    "Iadc_code": "221",
    "name": "S22",
    "pin_size": "N-Rod",
    "flushing": "Center"
  },
  {
    "diameter_inch": "2-1/2",
    "diameter_mm": "63,5",
    "Iadc_code": "311",
    "name": "S31",
    "pin_size": "N-Rod",
    "flushing": "Center"
  },
  {
    "diameter_inch": "2-1/2",
    "diameter_mm": "63,5",
    "Iadc_code": "631Y",
    "name": "S63",
    "pin_size": "N-Rod",
    "flushing": "Center"
  },
  {
    "diameter_inch": "2-1/2",
    "diameter_mm": "63,5",
    "Iadc_code": "631Y",
    "name": "S63B",
    "pin_size": "N-Rod",
    "flushing": "Center"
  },
  {
    "diameter_inch": "2-1/2",
    "diameter_mm": "63,5",
    "Iadc_code": "731Y",
    "name": "S73",
    "pin_size": "N-Rod",
    "flushing": "Center"
  },
  {
    "diameter_inch": "2-1/2",
    "diameter_mm": "63,5",
    "Iadc_code": "731Y",
    "name": "S73B",
    "pin_size": "N-Rod",
    "flushing": "Center"
  },
  {
    "diameter_inch": "2-5/8",
    "diameter_mm": "66,7",
    "Iadc_code": "221",
    "name": "S22",
    "pin_size": "AW-Rod",
    "flushing": "Center"
  },
  {
    "diameter_inch": "2-5/8",
    "diameter_mm": "66,7",
    "Iadc_code": "321",
    "name": "S32",
    "pin_size": "AW-Rod",
    "flushing": "Center"
  },
  {
    "diameter_inch": "2-5/8",
    "diameter_mm": "66,7",
    "Iadc_code": "631Y",
    "name": "S63",
    "pin_size": "AW-Rod",
    "flushing": "Center"
  },
  {
    "diameter_inch": "2-5/8",
    "diameter_mm": "66,7",
    "Iadc_code": "631Y",
    "name": "S63B",
    "pin_size": "AW-Rod",
    "flushing": "Center"
  },
  {
    "diameter_inch": "2-5/8",
    "diameter_mm": "66,7",
    "Iadc_code": "731Y",
    "name": "S73",
    "pin_size": "AW-Rod",
    "flushing": "Center"
  },
  {
    "diameter_inch": "2-5/8",
    "diameter_mm": "66,7",
    "Iadc_code": "731Y",
    "name": "S73B",
    "pin_size": "AW-Rod",
    "flushing": "Center"
  },
  {
    "diameter_inch": "2-5/8",
    "diameter_mm": "66,7",
    "Iadc_code": "221",
    "name": "S22",
    "pin_size": "N42",
    "flushing": "Center"
  },
  {
    "diameter_inch": "2-5/8",
    "diameter_mm": "66,7",
    "Iadc_code": "321",
    "name": "S32",
    "pin_size": "N42",
    "flushing": "Center"
  },
  {
    "diameter_inch": "2-5/8",
    "diameter_mm": "66,7",
    "Iadc_code": "631Y",
    "name": "S63",
    "pin_size": "N42",
    "flushing": "Center"
  },
  {
    "diameter_inch": "2-5/8",
    "diameter_mm": "66,7",
    "Iadc_code": "631Y",
    "name": "S63B",
    "pin_size": "N42",
    "flushing": "Center"
  },
  {
    "diameter_inch": "2-5/8",
    "diameter_mm": "66,7",
    "Iadc_code": "731Y",
    "name": "S73",
    "pin_size": "N42",
    "flushing": "Center"
  },
  {
    "diameter_inch": "2-5/8",
    "diameter_mm": "66,7",
    "Iadc_code": "731Y",
    "name": "S73B",
    "pin_size": "N42",
    "flushing": "Center"
  },
  {
    "diameter_inch": "2-5/8",
    "diameter_mm": "66,7",
    "Iadc_code": "221",
    "name": "S22",
    "pin_size": "N-Rod",
    "flushing": "Center"
  },
  {
    "diameter_inch": "2-5/8",
    "diameter_mm": "66,7",
    "Iadc_code": "321",
    "name": "S32",
    "pin_size": "N-Rod",
    "flushing": "Center"
  },
  {
    "diameter_inch": "2-5/8",
    "diameter_mm": "66,7",
    "Iadc_code": "631Y",
    "name": "S63",
    "pin_size": "N-Rod",
    "flushing": "Center"
  },
  {
    "diameter_inch": "2-5/8",
    "diameter_mm": "66,7",
    "Iadc_code": "631Y",
    "name": "S63B",
    "pin_size": "N-Rod",
    "flushing": "Center"
  },
  {
    "diameter_inch": "2-5/8",
    "diameter_mm": "66,7",
    "Iadc_code": "731Y",
    "name": "S73",
    "pin_size": "N-Rod",
    "flushing": "Center"
  },
  {
    "diameter_inch": "2-5/8",
    "diameter_mm": "66,7",
    "Iadc_code": "731Y",
    "name": "S73B",
    "pin_size": "N-Rod",
    "flushing": "Center"
  },
  {
    "diameter_inch": "2-3/4",
    "diameter_mm": "69,8",
    "Iadc_code": "221",
    "name": "S22",
    "pin_size": "AW-Rod",
    "flushing": "Center"
  },
  {
    "diameter_inch": "2-5/8",
    "diameter_mm": "66,7",
    "Iadc_code": "731Y",
    "name": "S73",
    "pin_size": "AW-Rod",
    "flushing": "Center"
  },
  {
    "diameter_inch": "2-5/8",
    "diameter_mm": "66,7",
    "Iadc_code": "731Y",
    "name": "S73B",
    "pin_size": "AW-Rod",
    "flushing": "Center"
  },
  {
    "diameter_inch": "2-3/4",
    "diameter_mm": "69,8",
    "Iadc_code": "631Y",
    "name": "S63",
    "pin_size": "AW-Rod",
    "flushing": "Center"
  },
  {
    "diameter_inch": "2-3/4",
    "diameter_mm": "69,8",
    "Iadc_code": "631Y",
    "name": "S63B",
    "pin_size": "AW-Rod",
    "flushing": "Center"
  },
  {
    "diameter_inch": "2-3/4",
    "diameter_mm": "69,8",
    "Iadc_code": "221",
    "name": "S22",
    "pin_size": "N42",
    "flushing": "Center"
  },
  {
    "diameter_inch": "2-3/4",
    "diameter_mm": "69,8",
    "Iadc_code": "631Y",
    "name": "S63",
    "pin_size": "N42",
    "flushing": "Center"
  },
  {
    "diameter_inch": "2-3/4",
    "diameter_mm": "69,8",
    "Iadc_code": "631Y",
    "name": "S63B",
    "pin_size": "N42",
    "flushing": "Center"
  },
  {
    "diameter_inch": "2-7/8",
    "diameter_mm": "73,0",
    "Iadc_code": "211",
    "name": "S21",
    "pin_size": "AW-Rod",
    "flushing": "Center"
  },
  {
    "diameter_inch": "2-7/8",
    "diameter_mm": "73,0",
    "Iadc_code": "321",
    "name": "S32",
    "pin_size": "AW-Rod",
    "flushing": "Center"
  },
  {
    "diameter_inch": "2-7/8",
    "diameter_mm": "73,0",
    "Iadc_code": "631Y",
    "name": "S63",
    "pin_size": "AW-Rod",
    "flushing": "Center"
  },
  {
    "diameter_inch": "2-7/8",
    "diameter_mm": "73,0",
    "Iadc_code": "631Y",
    "name": "S63B",
    "pin_size": "AW-Rod",
    "flushing": "Center"
  },
  {
    "diameter_inch": "2-3/4",
    "diameter_mm": "69,8",
    "Iadc_code": "221",
    "name": "S22",
    "pin_size": "N-Rod",
    "flushing": "Center"
  },
  {
    "diameter_inch": "2-5/8",
    "diameter_mm": "66,7",
    "Iadc_code": "731Y",
    "name": "S73",
    "pin_size": "N 42",
    "flushing": "Center"
  },
  {
    "diameter_inch": "2-3/4",
    "diameter_mm": "69,8",
    "Iadc_code": "631Y",
    "name": "S63",
    "pin_size": "N-Rod",
    "flushing": "Center"
  },
  {
    "diameter_inch": "2-3/4",
    "diameter_mm": "69,8",
    "Iadc_code": "631Y",
    "name": "S63B",
    "pin_size": "N-Rod",
    "flushing": "Center"
  },
  {
    "diameter_inch": "2-7/8",
    "diameter_mm": "73,0",
    "Iadc_code": "211",
    "name": "S21",
    "pin_size": "N-Rod",
    "flushing": "Center"
  },
  {
    "diameter_inch": "2-7/8",
    "diameter_mm": "73,0",
    "Iadc_code": "321",
    "name": "S32",
    "pin_size": "N-Rod",
    "flushing": "Center"
  },
  {
    "diameter_inch": "2-7/8",
    "diameter_mm": "73,0",
    "Iadc_code": "631Y",
    "name": "S63",
    "pin_size": "N-Rod",
    "flushing": "Center"
  },
  {
    "diameter_inch": "2-7/8",
    "diameter_mm": "73,0",
    "Iadc_code": "631Y",
    "name": "S63B",
    "pin_size": "N-Rod",
    "flushing": "Center"
  },
  {
    "diameter_inch": "2-7/8",
    "diameter_mm": "73,0",
    "Iadc_code": "211",
    "name": "S21",
    "pin_size": "N42",
    "flushing": "Center"
  },
  {
    "diameter_inch": "2-7/8",
    "diameter_mm": "73,0",
    "Iadc_code": "321",
    "name": "S32",
    "pin_size": "N42",
    "flushing": "Center"
  },
  {
    "diameter_inch": "2-7/8",
    "diameter_mm": "73,0",
    "Iadc_code": "631Y",
    "name": "S63",
    "pin_size": "N42",
    "flushing": "Center"
  },
  {
    "diameter_inch": "2-7/8",
    "diameter_mm": "73,0",
    "Iadc_code": "631Y",
    "name": "S63B",
    "pin_size": "N42",
    "flushing": "Center"
  },
  {
    "diameter_inch": "2-15/16",
    "diameter_mm": "74,6",
    "Iadc_code": "211",
    "name": "S21",
    "pin_size": "AW-Rod",
    "flushing": "Center"
  },
  {
    "diameter_inch": "2-15/16",
    "diameter_mm": "74,6",
    "Iadc_code": "211",
    "name": "S21B",
    "pin_size": "N 42",
    "flushing": "Center"
  },
  {
    "diameter_inch": "2-15/16",
    "diameter_mm": "74,6",
    "Iadc_code": "211",
    "name": "S21",
    "pin_size": "N-Rod",
    "flushing": "Center"
  },
  {
    "diameter_inch": "2-15/16",
    "diameter_mm": "74,6",
    "Iadc_code": "321",
    "name": "S32",
    "pin_size": "N-Rod",
    "flushing": "Center"
  },
  {
    "diameter_inch": "2-15/16",
    "diameter_mm": "74,6",
    "Iadc_code": "631Y",
    "name": "S63",
    "pin_size": "N 42",
    "flushing": "Center"
  },
  {
    "diameter_inch": "2-15/16",
    "diameter_mm": "74,6",
    "Iadc_code": "631Y",
    "name": "S63B",
    "pin_size": "N 42",
    "flushing": "Center"
  },
  {
    "diameter_inch": "2-15/16",
    "diameter_mm": "74,6",
    "Iadc_code": "631Y",
    "name": "S63",
    "pin_size": "N-Rod",
    "flushing": "Center"
  },
  {
    "diameter_inch": "2-15/16",
    "diameter_mm": "74,6",
    "Iadc_code": "631Y",
    "name": "S63B",
    "pin_size": "N-Rod",
    "flushing": "Center"
  },
  {
    "diameter_inch": "2-15/16",
    "diameter_mm": "74,6",
    "Iadc_code": "731Y",
    "name": "S73",
    "pin_size": "N 42",
    "flushing": "Center"
  },
  {
    "diameter_inch": "2-15/16",
    "diameter_mm": "74,6",
    "Iadc_code": "731Y",
    "name": "S73B",
    "pin_size": "N 42",
    "flushing": "Center"
  },
  {
    "diameter_inch": "2-15/16",
    "diameter_mm": "74,6",
    "Iadc_code": "731Y",
    "name": "S73",
    "pin_size": "N-Rod",
    "flushing": "Center"
  },
  {
    "diameter_inch": "2-15/16",
    "diameter_mm": "74,6",
    "Iadc_code": "731Y",
    "name": "S73B",
    "pin_size": "N-Rod",
    "flushing": "Center"
  },
  {
    "diameter_inch": "2-15/16",
    "diameter_mm": "74,6",
    "Iadc_code": "211",
    "name": "S21B",
    "pin_size": "AW-Rod",
    "flushing": "Center"
  },
  {
    "diameter_inch": "2-15/16",
    "diameter_mm": "74,6",
    "Iadc_code": "211",
    "name": "S21",
    "pin_size": "AW-Rod",
    "flushing": "Center"
  },
  {
    "diameter_inch": "2-15/16",
    "diameter_mm": "74,6",
    "Iadc_code": "321",
    "name": "S32",
    "pin_size": "AW-Rod",
    "flushing": "Center"
  },
  {
    "diameter_inch": "2-15/16",
    "diameter_mm": "74,6",
    "Iadc_code": "631Y",
    "name": "S63",
    "pin_size": "AW-Rod",
    "flushing": "Center"
  },
  {
    "diameter_inch": "2-15/16",
    "diameter_mm": "74,6",
    "Iadc_code": "631Y",
    "name": "S63B",
    "pin_size": "AW-Rod",
    "flushing": "Center"
  },
  {
    "diameter_inch": "2-15/16",
    "diameter_mm": "74,6",
    "Iadc_code": "631Y",
    "name": "S63",
    "pin_size": "AW-Rod",
    "flushing": "Center"
  },
  {
    "diameter_inch": "2-15/16",
    "diameter_mm": "74,6",
    "Iadc_code": "631Y",
    "name": "S63B",
    "pin_size": "AW-Rod",
    "flushing": "Center"
  },
  {
    "diameter_inch": "2-15/16",
    "diameter_mm": "74,6",
    "Iadc_code": "731Y",
    "name": "S73",
    "pin_size": "AW-Rod",
    "flushing": "Center"
  },
  {
    "diameter_inch": "2-15/16",
    "diameter_mm": "74,6",
    "Iadc_code": "731Y",
    "name": "S73B",
    "pin_size": "AW-Rod",
    "flushing": "Center"
  },
  {
    "diameter_inch": "2-15/16",
    "diameter_mm": "74,6",
    "Iadc_code": "731Y",
    "name": "S73",
    "pin_size": "AW-Rod",
    "flushing": "Center"
  },
  {
    "diameter_inch": "2-15/16",
    "diameter_mm": "74,6",
    "Iadc_code": "731Y",
    "name": "S73B",
    "pin_size": "AW-Rod",
    "flushing": "Center"
  },
  {
    "diameter_inch": "3",
    "diameter_mm": "76,2",
    "Iadc_code": "211",
    "name": "S21",
    "pin_size": "N-Rod",
    "flushing": "Center"
  },
  {
    "diameter_inch": "3",
    "diameter_mm": "76,2",
    "Iadc_code": "631Y",
    "name": "S63",
    "pin_size": "N-Rod",
    "flushing": "Center"
  },
  {
    "diameter_inch": "3",
    "diameter_mm": "76,2",
    "Iadc_code": "631Y",
    "name": "S63B",
    "pin_size": "N-Rod",
    "flushing": "Center"
  },
  {
    "diameter_inch": "3",
    "diameter_mm": "76,2",
    "Iadc_code": "741Y",
    "name": "S74B",
    "pin_size": "N-Rod",
    "flushing": "Center"
  },
  {
    "diameter_inch": "3",
    "diameter_mm": "76,2",
    "Iadc_code": "743Y",
    "name": "S74GB",
    "pin_size": "N-Rod",
    "flushing": "Center"
  },
  {
    "diameter_inch": "3",
    "diameter_mm": "76,2",
    "Iadc_code": "211",
    "name": "S21",
    "pin_size": "N42",
    "flushing": "Center"
  },
  {
    "diameter_inch": "3",
    "diameter_mm": "76,2",
    "Iadc_code": "631Y",
    "name": "S63",
    "pin_size": "N42",
    "flushing": "Center"
  },
  {
    "diameter_inch": "3",
    "diameter_mm": "76,2",
    "Iadc_code": "631Y",
    "name": "S63B",
    "pin_size": "N42",
    "flushing": "Center"
  },
  {
    "diameter_inch": "3",
    "diameter_mm": "76,2",
    "Iadc_code": "741Y",
    "name": "S74B",
    "pin_size": "N42",
    "flushing": "Center"
  },
  {
    "diameter_inch": "3",
    "diameter_mm": "76,2",
    "Iadc_code": "743Y",
    "name": "S74GB",
    "pin_size": "N42",
    "flushing": "Center"
  },
  {
    "diameter_inch": "3",
    "diameter_mm": "76,2",
    "Iadc_code": "211",
    "name": "S21",
    "pin_size": "AW-Rod",
    "flushing": "Center"
  },
  {
    "diameter_inch": "3",
    "diameter_mm": "76,2",
    "Iadc_code": "631Y",
    "name": "S63",
    "pin_size": "AW-Rod",
    "flushing": "Center"
  },
  {
    "diameter_inch": "3",
    "diameter_mm": "76,2",
    "Iadc_code": "631Y",
    "name": "S63B",
    "pin_size": "AW-Rod",
    "flushing": "Center"
  },
  {
    "diameter_inch": "3",
    "diameter_mm": "76,2",
    "Iadc_code": "741Y",
    "name": "S74B",
    "pin_size": "AW-Rod",
    "flushing": "Center"
  },
  {
    "diameter_inch": "3",
    "diameter_mm": "76,2",
    "Iadc_code": "743Y",
    "name": "S74GB",
    "pin_size": "AW-Rod",
    "flushing": "Center"
  },
  {
    "diameter_inch": "3-1/8",
    "diameter_mm": "79,4",
    "Iadc_code": "211",
    "name": "S21",
    "pin_size": "AW-Rod",
    "flushing": "Center"
  },
  {
    "diameter_inch": "3-1/8",
    "diameter_mm": "79,4",
    "Iadc_code": "631Y",
    "name": "S63",
    "pin_size": "AW-Rod",
    "flushing": "Center"
  },
  {
    "diameter_inch": "3-1/8",
    "diameter_mm": "79,4",
    "Iadc_code": "631Y",
    "name": "S63B",
    "pin_size": "AW-Rod",
    "flushing": "Center"
  },
  {
    "diameter_inch": "3-1/8",
    "diameter_mm": "79,4",
    "Iadc_code": "731Y",
    "name": "S73",
    "pin_size": "AW-Rod",
    "flushing": "Center"
  },
  {
    "diameter_inch": "3-1/8",
    "diameter_mm": "79,4",
    "Iadc_code": "731Y",
    "name": "S73B",
    "pin_size": "AW-Rod",
    "flushing": "Center"
  },
  {
    "diameter_inch": "3-1/8",
    "diameter_mm": "79,4",
    "Iadc_code": "211",
    "name": "S21",
    "pin_size": "N-Rod",
    "flushing": "Center"
  },
  {
    "diameter_inch": "3-1/8",
    "diameter_mm": "79,4",
    "Iadc_code": "631Y",
    "name": "S63",
    "pin_size": "N-Rod",
    "flushing": "Center"
  },
  {
    "diameter_inch": "3-1/8",
    "diameter_mm": "79,4",
    "Iadc_code": "631Y",
    "name": "S63B",
    "pin_size": "N-Rod",
    "flushing": "Center"
  },
  {
    "diameter_inch": "3-1/8",
    "diameter_mm": "79,4",
    "Iadc_code": "731Y",
    "name": "S73",
    "pin_size": "N-Rod",
    "flushing": "Center"
  },
  {
    "diameter_inch": "3-1/8",
    "diameter_mm": "79,4",
    "Iadc_code": "731Y",
    "name": "S73B",
    "pin_size": "N-Rod",
    "flushing": "Center"
  },
  {
    "diameter_inch": "3-1/4",
    "diameter_mm": "82,6",
    "Iadc_code": "211",
    "name": "S21",
    "pin_size": "AW-Rod",
    "flushing": "Center"
  },
  {
    "diameter_inch": "3-1/4",
    "diameter_mm": "82,6",
    "Iadc_code": "321",
    "name": "S32",
    "pin_size": "AW-Rod",
    "flushing": "Center"
  },
  {
    "diameter_inch": "3-1/4",
    "diameter_mm": "82,6",
    "Iadc_code": "631Y",
    "name": "S63",
    "pin_size": "AW-Rod",
    "flushing": "Center"
  },
  {
    "diameter_inch": "3-1/4",
    "diameter_mm": "82,6",
    "Iadc_code": "631Y",
    "name": "S63B",
    "pin_size": "AW-Rod",
    "flushing": "Center"
  },
  {
    "diameter_inch": "3-1/4",
    "diameter_mm": "82,6",
    "Iadc_code": "731Y",
    "name": "S73",
    "pin_size": "AW-Rod",
    "flushing": "Center"
  },
  {
    "diameter_inch": "3-1/4",
    "diameter_mm": "82,6",
    "Iadc_code": "731Y",
    "name": "S73B",
    "pin_size": "AW-Rod",
    "flushing": "Center"
  },
  {
    "diameter_inch": "3-1/4",
    "diameter_mm": "82,6",
    "Iadc_code": "211",
    "name": "S21",
    "pin_size": "N-Rod",
    "flushing": "Center"
  },
  {
    "diameter_inch": "3-1/4",
    "diameter_mm": "82,6",
    "Iadc_code": "321",
    "name": "S32",
    "pin_size": "N-Rod",
    "flushing": "Center"
  },
  {
    "diameter_inch": "3-1/4",
    "diameter_mm": "82,6",
    "Iadc_code": "631Y",
    "name": "S63",
    "pin_size": "N-Rod",
    "flushing": "Center"
  },
  {
    "diameter_inch": "3-1/4",
    "diameter_mm": "82,6",
    "Iadc_code": "631Y",
    "name": "S63B",
    "pin_size": "N-Rod",
    "flushing": "Center"
  },
  {
    "diameter_inch": "3-1/4",
    "diameter_mm": "82,6",
    "Iadc_code": "731Y",
    "name": "S73",
    "pin_size": "N-Rod",
    "flushing": "Center"
  },
  {
    "diameter_inch": "3-1/4",
    "diameter_mm": "82,6",
    "Iadc_code": "731Y",
    "name": "S73B",
    "pin_size": "N-Rod",
    "flushing": "Center"
  },
  {
    "diameter_inch": "3-3/8",
    "diameter_mm": "85,7",
    "Iadc_code": "211",
    "name": "S21",
    "pin_size": "N-Rod",
    "flushing": "Center"
  },
  {
    "diameter_inch": "3-3/8",
    "diameter_mm": "85,7",
    "Iadc_code": "631Y",
    "name": "S63",
    "pin_size": "N-Rod",
    "flushing": "Center"
  },
  {
    "diameter_inch": "3-3/8",
    "diameter_mm": "85,7",
    "Iadc_code": "631Y",
    "name": "S63B",
    "pin_size": "N-Rod",
    "flushing": "Center"
  },
  {
    "diameter_inch": "3-1/2",
    "diameter_mm": "88,9",
    "Iadc_code": "211",
    "name": "S21",
    "pin_size": "2-3/8 Reg",
    "flushing": "Center"
  },
  {
    "diameter_inch": "3-1/2",
    "diameter_mm": "88,9",
    "Iadc_code": "211",
    "name": "S21B",
    "pin_size": "2-3/8 Reg",
    "flushing": "Center"
  },
  {
    "diameter_inch": "3-1/2",
    "diameter_mm": "88,9",
    "Iadc_code": "211",
    "name": "S21",
    "pin_size": "N-Rod",
    "flushing": "Center"
  },
  {
    "diameter_inch": "3-1/2",
    "diameter_mm": "88,9",
    "Iadc_code": "211",
    "name": "S21B",
    "pin_size": "N-Rod",
    "flushing": "Center"
  },
  {
    "diameter_inch": "3-1/2",
    "diameter_mm": "88,9",
    "Iadc_code": "221",
    "name": "S22",
    "pin_size": "2-3/8 Reg",
    "flushing": "Center"
  },
  {
    "diameter_inch": "3-1/2",
    "diameter_mm": "88,9",
    "Iadc_code": "221",
    "name": "S22",
    "pin_size": "N-Rod",
    "flushing": "Center"
  },
  {
    "diameter_inch": "3-1/2",
    "diameter_mm": "88,9",
    "Iadc_code": "311",
    "name": "S31",
    "pin_size": "2-3/8 Reg",
    "flushing": "Center"
  },
  {
    "diameter_inch": "3-1/2",
    "diameter_mm": "88,9",
    "Iadc_code": "311",
    "name": "S31",
    "pin_size": "N-Rod",
    "flushing": "Center"
  },
  {
    "diameter_inch": "3-1/2",
    "diameter_mm": "88,9",
    "Iadc_code": "531Y",
    "name": "S53",
    "pin_size": "2-3/8 Reg",
    "flushing": "Center"
  },
  {
    "diameter_inch": "3-1/2",
    "diameter_mm": "88,9",
    "Iadc_code": "531Y",
    "name": "S53B",
    "pin_size": "2-3/8 Reg",
    "flushing": "Center"
  },
  {
    "diameter_inch": "3-1/2",
    "diameter_mm": "88,9",
    "Iadc_code": "531Y",
    "name": "S53",
    "pin_size": "2-3/8 Reg",
    "flushing": "Center"
  },
  {
    "diameter_inch": "3-1/2",
    "diameter_mm": "88,9",
    "Iadc_code": "531Y",
    "name": "S53B",
    "pin_size": "2-3/8 Reg",
    "flushing": "Center"
  },
  {
    "diameter_inch": "3-1/2",
    "diameter_mm": "88,9",
    "Iadc_code": "531Y",
    "name": "S53",
    "pin_size": "N-Rod",
    "flushing": "Center"
  },
  {
    "diameter_inch": "3-1/2",
    "diameter_mm": "88,9",
    "Iadc_code": "531Y",
    "name": "S53B",
    "pin_size": "N-Rod",
    "flushing": "Center"
  },
  {
    "diameter_inch": "3-1/2",
    "diameter_mm": "88,9",
    "Iadc_code": "531Y",
    "name": "S53",
    "pin_size": "N-Rod",
    "flushing": "Center"
  },
  {
    "diameter_inch": "3-1/2",
    "diameter_mm": "88,9",
    "Iadc_code": "531Y",
    "name": "S53B",
    "pin_size": "N-Rod",
    "flushing": "Center"
  },
  {
    "diameter_inch": "3-1/2",
    "diameter_mm": "88,9",
    "Iadc_code": "631Y",
    "name": "S63",
    "pin_size": "2-3/8 Reg",
    "flushing": "Center"
  },
  {
    "diameter_inch": "3-1/2",
    "diameter_mm": "88,9",
    "Iadc_code": "631Y",
    "name": "S63B",
    "pin_size": "2-3/8 Reg",
    "flushing": "Center"
  },
  {
    "diameter_inch": "3-1/2",
    "diameter_mm": "88,9",
    "Iadc_code": "631Y",
    "name": "S63",
    "pin_size": "N-Rod",
    "flushing": "Center"
  },
  {
    "diameter_inch": "3-1/2",
    "diameter_mm": "88,9",
    "Iadc_code": "631Y",
    "name": "S63B",
    "pin_size": "N-Rod",
    "flushing": "Center"
  },
  {
    "diameter_inch": "3-1/2",
    "diameter_mm": "88,9",
    "Iadc_code": "731Y",
    "name": "S73",
    "pin_size": "2-3/8 Reg",
    "flushing": "Center"
  },
  {
    "diameter_inch": "3-1/2",
    "diameter_mm": "88,9",
    "Iadc_code": "731Y",
    "name": "S73B",
    "pin_size": "2-3/8 Reg",
    "flushing": "Center"
  },
  {
    "diameter_inch": "3-1/2",
    "diameter_mm": "88,9",
    "Iadc_code": "731Y",
    "name": "S73",
    "pin_size": "N-Rod",
    "flushing": "Center"
  },
  {
    "diameter_inch": "3-1/2",
    "diameter_mm": "88,9",
    "Iadc_code": "731Y",
    "name": "S73B",
    "pin_size": "N-Rod",
    "flushing": "Center"
  },
  {
    "diameter_inch": "3-5/8",
    "diameter_mm": "92,1",
    "Iadc_code": "211",
    "name": "S21",
    "pin_size": "2-3/8 Reg",
    "flushing": "Center"
  },
  {
    "diameter_inch": "3-5/8",
    "diameter_mm": "92,1",
    "Iadc_code": "531Y",
    "name": "S53",
    "pin_size": "2-3/8 Reg",
    "flushing": "Center"
  },
  {
    "diameter_inch": "3-5/8",
    "diameter_mm": "92,1",
    "Iadc_code": "531Y",
    "name": "S53B",
    "pin_size": "2-3/8 Reg",
    "flushing": "Center"
  },
  {
    "diameter_inch": "3-5/8",
    "diameter_mm": "92,1",
    "Iadc_code": "631Y",
    "name": "S63",
    "pin_size": "2-3/8 Reg",
    "flushing": "Center"
  },
  {
    "diameter_inch": "3-5/8",
    "diameter_mm": "92,1",
    "Iadc_code": "631Y",
    "name": "S63B",
    "pin_size": "2-3/8 Reg",
    "flushing": "Center"
  },
  {
    "diameter_inch": "3-21/32",
    "diameter_mm": "92,9",
    "Iadc_code": "741Y",
    "name": "S74",
    "pin_size": "2-3/8 Reg",
    "flushing": "Center"
  },
  {
    "diameter_inch": "3-21/32",
    "diameter_mm": "92,9",
    "Iadc_code": "741Y",
    "name": "S74B",
    "pin_size": "2-3/8 Reg",
    "flushing": "Center"
  },
  {
    "diameter_inch": "3-3/4",
    "diameter_mm": "95,2",
    "Iadc_code": "211",
    "name": "S21",
    "pin_size": "2-3/8 Reg",
    "flushing": "Center"
  },
  {
    "diameter_inch": "3-3/4",
    "diameter_mm": "95,2",
    "Iadc_code": "213",
    "name": "S21G",
    "pin_size": "N 51",
    "flushing": "Center"
  },
  {
    "diameter_inch": "3-3/4",
    "diameter_mm": "95,2",
    "Iadc_code": "221",
    "name": "S22",
    "pin_size": "2-3/8 Reg",
    "flushing": "Center"
  },
  {
    "diameter_inch": "3-3/4",
    "diameter_mm": "95,2",
    "Iadc_code": "223",
    "name": "S22G",
    "pin_size": "2-3/8 Reg",
    "flushing": "Center"
  },
  {
    "diameter_inch": "3-3/4",
    "diameter_mm": "95,2",
    "Iadc_code": "631Y",
    "name": "S63",
    "pin_size": "2-3/8 Reg",
    "flushing": "Center"
  },
  {
    "diameter_inch": "3-3/4",
    "diameter_mm": "95,2",
    "Iadc_code": "631Y",
    "name": "S63B",
    "pin_size": "2-3/8 Reg",
    "flushing": "Center"
  },
  {
    "diameter_inch": "3-3/4",
    "diameter_mm": "95,2",
    "Iadc_code": "633Y",
    "name": "S63G",
    "pin_size": "2-3/8 Reg",
    "flushing": "Center"
  },
  {
    "diameter_inch": "3-3/4",
    "diameter_mm": "95,2",
    "Iadc_code": "633Y",
    "name": "S63GB",
    "pin_size": "2-3/8 Reg",
    "flushing": "Center"
  },
  {
    "diameter_inch": "3-3/4",
    "diameter_mm": "95,2",
    "Iadc_code": "731Y",
    "name": "S73",
    "pin_size": "2-3/8 Reg",
    "flushing": "Center"
  },
  {
    "diameter_inch": "3-3/4",
    "diameter_mm": "95,2",
    "Iadc_code": "731Y",
    "name": "S73B",
    "pin_size": "2-3/8 Reg",
    "flushing": "Center"
  },
  {
    "diameter_inch": "3-3/4",
    "diameter_mm": "95,2",
    "Iadc_code": "731Y",
    "name": "S73",
    "pin_size": "N 51",
    "flushing": "Center"
  },
  {
    "diameter_inch": "3-3/4",
    "diameter_mm": "95,2",
    "Iadc_code": "733Y",
    "name": "S73G",
    "pin_size": "2-3/8 Reg",
    "flushing": "Center"
  },
  {
    "diameter_inch": "3-3/4",
    "diameter_mm": "95,2",
    "Iadc_code": "733Y",
    "name": "S73GB",
    "pin_size": "2-3/8 Reg",
    "flushing": "Center"
  },
  {
    "diameter_inch": "3-3/4",
    "diameter_mm": "95,2",
    "Iadc_code": "733Y",
    "name": "S73G",
    "pin_size": "N 51",
    "flushing": "Center"
  },
  {
    "diameter_inch": "3-3/4",
    "diameter_mm": "95,2",
    "Iadc_code": "733Y",
    "name": "S73GB",
    "pin_size": "N 51",
    "flushing": "Center"
  },
  {
    "diameter_inch": "3-7/8",
    "diameter_mm": "98,4",
    "Iadc_code": "211",
    "name": "S21",
    "pin_size": "2-3/8 Reg",
    "flushing": "Center"
  },
  {
    "diameter_inch": "3-7/8",
    "diameter_mm": "98,4",
    "Iadc_code": "221",
    "name": "S22",
    "pin_size": "2-3/8 Reg",
    "flushing": "Center"
  },
  {
    "diameter_inch": "3-7/8",
    "diameter_mm": "98,4",
    "Iadc_code": "531Y",
    "name": "S53",
    "pin_size": "2-3/8 Reg",
    "flushing": "Center"
  },
  {
    "diameter_inch": "3-7/8",
    "diameter_mm": "98,4",
    "Iadc_code": "531Y",
    "name": "S53B",
    "pin_size": "2-3/8 Reg",
    "flushing": "Center"
  },
  {
    "diameter_inch": "3-7/8",
    "diameter_mm": "98,4",
    "Iadc_code": "533Y",
    "name": "S53G",
    "pin_size": "2-3/8 Reg",
    "flushing": "Center"
  },
  {
    "diameter_inch": "3-7/8",
    "diameter_mm": "98,4",
    "Iadc_code": "533Y",
    "name": "S53GB",
    "pin_size": "2-3/8 Reg",
    "flushing": "Center"
  },
  {
    "diameter_inch": "3-7/8",
    "diameter_mm": "98,4",
    "Iadc_code": "631Y",
    "name": "S63",
    "pin_size": "2-3/8 Reg",
    "flushing": "Center"
  },
  {
    "diameter_inch": "3-7/8",
    "diameter_mm": "98,4",
    "Iadc_code": "631Y",
    "name": "S63B",
    "pin_size": "2-3/8 Reg",
    "flushing": "Center"
  },
  {
    "diameter_inch": "3-7/8",
    "diameter_mm": "98,4",
    "Iadc_code": "633Y",
    "name": "S63G",
    "pin_size": "2-3/8 Reg",
    "flushing": "Center"
  },
  {
    "diameter_inch": "3-7/8",
    "diameter_mm": "98,4",
    "Iadc_code": "633Y",
    "name": "S63GB",
    "pin_size": "2-3/8 Reg",
    "flushing": "Center"
  },
  {
    "diameter_inch": "3-7/8",
    "diameter_mm": "98,4",
    "Iadc_code": "731Y",
    "name": "S73",
    "pin_size": "2-3/8 Reg",
    "flushing": "Center"
  },
  {
    "diameter_inch": "3-7/8",
    "diameter_mm": "98,4",
    "Iadc_code": "731Y",
    "name": "S73B",
    "pin_size": "2-3/8 Reg",
    "flushing": "Center"
  },
  {
    "diameter_inch": "3-7/8",
    "diameter_mm": "98,4",
    "Iadc_code": "733Y",
    "name": "S73G",
    "pin_size": "2-3/8 Reg",
    "flushing": "Center"
  },
  {
    "diameter_inch": "3-7/8",
    "diameter_mm": "98,4",
    "Iadc_code": "733Y",
    "name": "S73GB",
    "pin_size": "2-3/8 Reg",
    "flushing": "Center"
  },
  {
    "diameter_inch": "4",
    "diameter_mm": "101,6",
    "Iadc_code": "211",
    "name": "S21",
    "pin_size": "2-3/8 Reg",
    "flushing": "Center"
  },
  {
    "diameter_inch": "4",
    "diameter_mm": "101,6",
    "Iadc_code": "211",
    "name": "S21B",
    "pin_size": "2-3/8 Reg",
    "flushing": "Center"
  },
  {
    "diameter_inch": "4",
    "diameter_mm": "101,6",
    "Iadc_code": "531Y",
    "name": "S53",
    "pin_size": "2-3/8 Reg",
    "flushing": "Center"
  },
  {
    "diameter_inch": "4",
    "diameter_mm": "101,6",
    "Iadc_code": "531Y",
    "name": "S53B",
    "pin_size": "2-3/8 Reg",
    "flushing": "Center"
  },
  {
    "diameter_inch": "4",
    "diameter_mm": "101,6",
    "Iadc_code": "533Y",
    "name": "S53G",
    "pin_size": "2-3/8 Reg",
    "flushing": "Center"
  },
  {
    "diameter_inch": "4",
    "diameter_mm": "101,6",
    "Iadc_code": "533Y",
    "name": "S53GB",
    "pin_size": "2-3/8 Reg",
    "flushing": "Center"
  },
  {
    "diameter_inch": "4",
    "diameter_mm": "101,6",
    "Iadc_code": "631Y",
    "name": "S63",
    "pin_size": "2-3/8 Reg",
    "flushing": "Center"
  },
  {
    "diameter_inch": "4",
    "diameter_mm": "101,6",
    "Iadc_code": "631Y",
    "name": "S63B",
    "pin_size": "2-3/8 Reg",
    "flushing": "Center"
  },
  {
    "diameter_inch": "4",
    "diameter_mm": "101,6",
    "Iadc_code": "633Y",
    "name": "S63G",
    "pin_size": "2-3/8 Reg",
    "flushing": "Center"
  },
  {
    "diameter_inch": "4",
    "diameter_mm": "101,6",
    "Iadc_code": "633Y",
    "name": "S63GB",
    "pin_size": "2-3/8 Reg",
    "flushing": "Center"
  },
  {
    "diameter_inch": "4",
    "diameter_mm": "101,6",
    "Iadc_code": "741Y",
    "name": "S74",
    "pin_size": "2-3/8 Reg",
    "flushing": "Center"
  },
  {
    "diameter_inch": "4",
    "diameter_mm": "101,6",
    "Iadc_code": "741Y",
    "name": "S74B",
    "pin_size": "2-3/8 Reg",
    "flushing": "Center"
  },
  {
    "diameter_inch": "4",
    "diameter_mm": "101,6",
    "Iadc_code": "743Y",
    "name": "S74G",
    "pin_size": "2-3/8 Reg",
    "flushing": "Center"
  },
  {
    "diameter_inch": "4",
    "diameter_mm": "101,6",
    "Iadc_code": "743Y",
    "name": "S74GB",
    "pin_size": "2-3/8 Reg",
    "flushing": "Center"
  },
  {
    "diameter_inch": "4-1/8",
    "diameter_mm": "104,8",
    "Iadc_code": "211",
    "name": "S21",
    "pin_size": "2-3/8 Reg",
    "flushing": "Center"
  },
  {
    "diameter_inch": "4-1/8",
    "diameter_mm": "104,8",
    "Iadc_code": "211",
    "name": "S21B",
    "pin_size": "2-3/8 Reg",
    "flushing": "Center"
  },
  {
    "diameter_inch": "4-1/8",
    "diameter_mm": "104,8",
    "Iadc_code": "311",
    "name": "S31",
    "pin_size": "2-3/8 Reg",
    "flushing": "Center"
  },
  {
    "diameter_inch": "4-1/8",
    "diameter_mm": "104,8",
    "Iadc_code": "311",
    "name": "S31B",
    "pin_size": "2-3/8 Reg",
    "flushing": "Center"
  },
  {
    "diameter_inch": "4-1/8",
    "diameter_mm": "104,8",
    "Iadc_code": "531Y",
    "name": "S53",
    "pin_size": "2-3/8 Reg",
    "flushing": "Center"
  },
  {
    "diameter_inch": "4-1/8",
    "diameter_mm": "104,8",
    "Iadc_code": "531Y",
    "name": "S53B",
    "pin_size": "2-3/8 Reg",
    "flushing": "Center"
  },
  {
    "diameter_inch": "4-1/8",
    "diameter_mm": "104,8",
    "Iadc_code": "631Y",
    "name": "S63",
    "pin_size": "2-3/8 Reg",
    "flushing": "Center"
  },
  {
    "diameter_inch": "4-1/8",
    "diameter_mm": "104,8",
    "Iadc_code": "631Y",
    "name": "S63B",
    "pin_size": "2-3/8 Reg",
    "flushing": "Center"
  },
  {
    "diameter_inch": "4-1/8",
    "diameter_mm": "104,8",
    "Iadc_code": "633Y",
    "name": "S63G",
    "pin_size": "2-3/8 Reg",
    "flushing": "Center"
  },
  {
    "diameter_inch": "4-1/8",
    "diameter_mm": "104,8",
    "Iadc_code": "633Y",
    "name": "S63GB",
    "pin_size": "2-3/8 Reg",
    "flushing": "Center"
  },
  {
    "diameter_inch": "4-1/4",
    "diameter_mm": "107,9",
    "Iadc_code": "211",
    "name": "S21",
    "pin_size": "2-3/8 Reg",
    "flushing": "Center"
  },
  {
    "diameter_inch": "4-1/4",
    "diameter_mm": "107,9",
    "Iadc_code": "211",
    "name": "S21B",
    "pin_size": "2-3/8 Reg",
    "flushing": "Center"
  },
  {
    "diameter_inch": "4-1/4",
    "diameter_mm": "107,9",
    "Iadc_code": "531Y",
    "name": "S53",
    "pin_size": "2-3/8 Reg",
    "flushing": "Center"
  },
  {
    "diameter_inch": "4-1/4",
    "diameter_mm": "107,9",
    "Iadc_code": "531Y",
    "name": "S53B",
    "pin_size": "2-3/8 Reg",
    "flushing": "Center"
  },
  {
    "diameter_inch": "4-1/4",
    "diameter_mm": "107,9",
    "Iadc_code": "533Y",
    "name": "S53G",
    "pin_size": "2-3/8 Reg",
    "flushing": "Center"
  },
  {
    "diameter_inch": "4-1/4",
    "diameter_mm": "107,9",
    "Iadc_code": "533Y",
    "name": "S53GB",
    "pin_size": "2-3/8 Reg",
    "flushing": "Center"
  },
  {
    "diameter_inch": "4-1/4",
    "diameter_mm": "107,9",
    "Iadc_code": "631Y",
    "name": "S63",
    "pin_size": "2-3/8 Reg",
    "flushing": "Center"
  },
  {
    "diameter_inch": "4-1/4",
    "diameter_mm": "107,9",
    "Iadc_code": "631Y",
    "name": "S63B",
    "pin_size": "2-3/8 Reg",
    "flushing": "Center"
  },
  {
    "diameter_inch": "4-1/4",
    "diameter_mm": "107,9",
    "Iadc_code": "633Y",
    "name": "S63G",
    "pin_size": "2-3/8 Reg",
    "flushing": "Center"
  },
  {
    "diameter_inch": "4-1/4",
    "diameter_mm": "107,9",
    "Iadc_code": "633Y",
    "name": "S63GB",
    "pin_size": "2-3/8 Reg",
    "flushing": "Center"
  },
  {
    "diameter_inch": "4-1/4",
    "diameter_mm": "107,9",
    "Iadc_code": "731Y",
    "name": "S73",
    "pin_size": "2-3/8 Reg",
    "flushing": "Center"
  },
  {
    "diameter_inch": "4-1/4",
    "diameter_mm": "107,9",
    "Iadc_code": "731Y",
    "name": "S73B",
    "pin_size": "2-3/8 Reg",
    "flushing": "Center"
  },
  {
    "diameter_inch": "4-1/4",
    "diameter_mm": "107,9",
    "Iadc_code": "733Y",
    "name": "S73G",
    "pin_size": "2-3/8 Reg",
    "flushing": "Center"
  },
  {
    "diameter_inch": "4-1/4",
    "diameter_mm": "107,9",
    "Iadc_code": "733Y",
    "name": "S73GB",
    "pin_size": "2-3/8 Reg",
    "flushing": "Center"
  },
  {
    "diameter_inch": "4-3/8",
    "diameter_mm": "111,1",
    "Iadc_code": "111",
    "name": "S11",
    "pin_size": "2-3/8 Reg",
    "flushing": "Center"
  },
  {
    "diameter_inch": "4-3/8",
    "diameter_mm": "111,1",
    "Iadc_code": "211",
    "name": "S21",
    "pin_size": "2-3/8 Reg",
    "flushing": "Center"
  },
  {
    "diameter_inch": "4-3/8",
    "diameter_mm": "111,1",
    "Iadc_code": "211",
    "name": "S21B",
    "pin_size": "2-3/8 Reg",
    "flushing": "Center"
  },
  {
    "diameter_inch": "4-3/8",
    "diameter_mm": "111,1",
    "Iadc_code": "631Y",
    "name": "S63",
    "pin_size": "2-3/8 Reg",
    "flushing": "Center"
  },
  {
    "diameter_inch": "4-3/8",
    "diameter_mm": "111,1",
    "Iadc_code": "631Y",
    "name": "S63B",
    "pin_size": "2-3/8 Reg",
    "flushing": "Center"
  },
  {
    "diameter_inch": "4-3/8",
    "diameter_mm": "111,1",
    "Iadc_code": "633Y",
    "name": "S63G",
    "pin_size": "2-3/8 Reg",
    "flushing": "Center"
  },
  {
    "diameter_inch": "4-3/8",
    "diameter_mm": "111,1",
    "Iadc_code": "633Y",
    "name": "S63GB",
    "pin_size": "2-3/8 Reg",
    "flushing": "Center"
  },
  {
    "diameter_inch": "4-13/32",
    "diameter_mm": "111,9",
    "Iadc_code": "731Y",
    "name": "S73",
    "pin_size": "2-3/8 Reg",
    "flushing": "Center"
  },
  {
    "diameter_inch": "4-13/32",
    "diameter_mm": "111,9",
    "Iadc_code": "731Y",
    "name": "S73B",
    "pin_size": "2-3/8 Reg",
    "flushing": "Center"
  },
  {
    "diameter_inch": "4-13/32",
    "diameter_mm": "111,9",
    "Iadc_code": "733Y",
    "name": "S73G",
    "pin_size": "2-3/8 Reg",
    "flushing": "Center"
  },
  {
    "diameter_inch": "4-13/32",
    "diameter_mm": "111,9",
    "Iadc_code": "733Y",
    "name": "S73GB",
    "pin_size": "2-3/8 Reg",
    "flushing": "Center"
  },
  {
    "diameter_inch": "4-1/2",
    "diameter_mm": "113,3",
    "Iadc_code": "731Y",
    "name": "S73",
    "pin_size": "2-3/8 Reg",
    "flushing": "Center"
  },
  {
    "diameter_inch": "4-1/2",
    "diameter_mm": "113,3",
    "Iadc_code": "731Y",
    "name": "S73B",
    "pin_size": "2-3/8 Reg",
    "flushing": "Center"
  },
  {
    "diameter_inch": "4-1/2",
    "diameter_mm": "113,3",
    "Iadc_code": "733Y",
    "name": "S73G",
    "pin_size": "2-3/8 Reg",
    "flushing": "Center"
  },
  {
    "diameter_inch": "4-1/2",
    "diameter_mm": "113,3",
    "Iadc_code": "733Y",
    "name": "S73GB",
    "pin_size": "2-3/8 Reg",
    "flushing": "Center"
  },
  {
    "diameter_inch": "4-1/2",
    "diameter_mm": "114,3",
    "Iadc_code": "211",
    "name": "S21",
    "pin_size": "2-3/8 Reg",
    "flushing": "Center"
  },
  {
    "diameter_inch": "4-1/2",
    "diameter_mm": "114,3",
    "Iadc_code": "211",
    "name": "S21B",
    "pin_size": "2-3/8 Reg",
    "flushing": "Center"
  },
  {
    "diameter_inch": "4-1/2",
    "diameter_mm": "114,3",
    "Iadc_code": "221",
    "name": "S22",
    "pin_size": "2-3/8 Reg",
    "flushing": "Center"
  },
  {
    "diameter_inch": "4-1/2",
    "diameter_mm": "114,3",
    "Iadc_code": "221",
    "name": "S22B",
    "pin_size": "2-3/8 Reg",
    "flushing": "Center"
  },
  {
    "diameter_inch": "4-1/2",
    "diameter_mm": "114,3",
    "Iadc_code": "223",
    "name": "S22G",
    "pin_size": "2-3/8 Reg",
    "flushing": "Center"
  },
  {
    "diameter_inch": "4-1/2",
    "diameter_mm": "114,3",
    "Iadc_code": "223",
    "name": "S22GB",
    "pin_size": "2-3/8 Reg",
    "flushing": "Center"
  },
  {
    "diameter_inch": "4-1/2",
    "diameter_mm": "114,3",
    "Iadc_code": "311",
    "name": "S31",
    "pin_size": "2-3/8 Reg",
    "flushing": "Center"
  },
  {
    "diameter_inch": "4-1/2",
    "diameter_mm": "114,3",
    "Iadc_code": "311",
    "name": "S31B",
    "pin_size": "2-3/8 Reg",
    "flushing": "Center"
  },
  {
    "diameter_inch": "4-1/2",
    "diameter_mm": "114,3",
    "Iadc_code": "313",
    "name": "S31G",
    "pin_size": "2-3/8 Reg",
    "flushing": "Center"
  },
  {
    "diameter_inch": "4-1/2",
    "diameter_mm": "114,3",
    "Iadc_code": "313",
    "name": "S31GB",
    "pin_size": "2-3/8 Reg",
    "flushing": "Center"
  },
  {
    "diameter_inch": "4-1/2",
    "diameter_mm": "114,3",
    "Iadc_code": "511X",
    "name": "S51X",
    "pin_size": "2-3/8 Reg",
    "flushing": "Center"
  },
  {
    "diameter_inch": "4-1/2",
    "diameter_mm": "114,3",
    "Iadc_code": "511X",
    "name": "S51XB",
    "pin_size": "2-3/8 Reg",
    "flushing": "Center"
  },
  {
    "diameter_inch": "4-1/2",
    "diameter_mm": "114,3",
    "Iadc_code": "513X",
    "name": "S51XG",
    "pin_size": "2-3/8 Reg",
    "flushing": "Center"
  },
  {
    "diameter_inch": "4-1/2",
    "diameter_mm": "114,3",
    "Iadc_code": "513X",
    "name": "S51XGB",
    "pin_size": "2-3/8 Reg",
    "flushing": "Center"
  },
  {
    "diameter_inch": "4-1/2",
    "diameter_mm": "114,3",
    "Iadc_code": "531Y",
    "name": "S53",
    "pin_size": "2-3/8 Reg",
    "flushing": "Center"
  },
  {
    "diameter_inch": "4-1/2",
    "diameter_mm": "114,3",
    "Iadc_code": "531Y",
    "name": "S53B",
    "pin_size": "2-3/8 Reg",
    "flushing": "Center"
  },
  {
    "diameter_inch": "4-1/2",
    "diameter_mm": "114,3",
    "Iadc_code": "533Y",
    "name": "S53G",
    "pin_size": "2-3/8 Reg",
    "flushing": "Center"
  },
  {
    "diameter_inch": "4-1/2",
    "diameter_mm": "114,3",
    "Iadc_code": "533Y",
    "name": "S53GB",
    "pin_size": "2-3/8 Reg",
    "flushing": "Center"
  },
  {
    "diameter_inch": "4-1/2",
    "diameter_mm": "114,3",
    "Iadc_code": "631Y",
    "name": "S63",
    "pin_size": "2-3/8 Reg",
    "flushing": "Center"
  },
  {
    "diameter_inch": "4-1/2",
    "diameter_mm": "114,3",
    "Iadc_code": "631Y",
    "name": "S63B",
    "pin_size": "2-3/8 Reg",
    "flushing": "Center"
  },
  {
    "diameter_inch": "4-1/2",
    "diameter_mm": "114,3",
    "Iadc_code": "633Y",
    "name": "S63G",
    "pin_size": "2-3/8 Reg",
    "flushing": "Center"
  },
  {
    "diameter_inch": "4-1/2",
    "diameter_mm": "114,3",
    "Iadc_code": "633Y",
    "name": "S63GB",
    "pin_size": "2-3/8 Reg",
    "flushing": "Center"
  },
  {
    "diameter_inch": "4-1/2",
    "diameter_mm": "114,3",
    "Iadc_code": "731Y",
    "name": "S73",
    "pin_size": "2-3/8 Reg",
    "flushing": "Center"
  },
  {
    "diameter_inch": "4-1/2",
    "diameter_mm": "114,3",
    "Iadc_code": "731Y",
    "name": "S73B",
    "pin_size": "2-3/8 Reg",
    "flushing": "Center"
  },
  {
    "diameter_inch": "4-1/2",
    "diameter_mm": "114,3",
    "Iadc_code": "733Y",
    "name": "S73G",
    "pin_size": "2-3/8 Reg",
    "flushing": "Center"
  },
  {
    "diameter_inch": "4-1/2",
    "diameter_mm": "114,3",
    "Iadc_code": "733Y",
    "name": "S73GB",
    "pin_size": "2-3/8 Reg",
    "flushing": "Center"
  },
  {
    "diameter_inch": "4-5/8",
    "diameter_mm": "117,5",
    "Iadc_code": "211",
    "name": "S21",
    "pin_size": "2-7/8 Reg",
    "flushing": "Center"
  },
  {
    "diameter_inch": "4-5/8",
    "diameter_mm": "117,5",
    "Iadc_code": "211",
    "name": "S21B",
    "pin_size": "2-7/8 Reg",
    "flushing": "Center"
  },
  {
    "diameter_inch": "4-5/8",
    "diameter_mm": "117,5",
    "Iadc_code": "531Y",
    "name": "S53",
    "pin_size": "2-7/8 Reg",
    "flushing": "Center"
  },
  {
    "diameter_inch": "4-5/8",
    "diameter_mm": "117,5",
    "Iadc_code": "531Y",
    "name": "S53B",
    "pin_size": "2-7/8 Reg",
    "flushing": "Center"
  },
  {
    "diameter_inch": "4-5/8",
    "diameter_mm": "117,5",
    "Iadc_code": "533Y",
    "name": "S53G",
    "pin_size": "2-7/8 Reg",
    "flushing": "Center"
  },
  {
    "diameter_inch": "4-5/8",
    "diameter_mm": "117,5",
    "Iadc_code": "533Y",
    "name": "S53GB",
    "pin_size": "2-7/8 Reg",
    "flushing": "Center"
  },
  {
    "diameter_inch": "4-5/8",
    "diameter_mm": "117,5",
    "Iadc_code": "631Y",
    "name": "S63",
    "pin_size": "2-7/8 Reg",
    "flushing": "Center"
  },
  {
    "diameter_inch": "4-5/8",
    "diameter_mm": "117,5",
    "Iadc_code": "631Y",
    "name": "S63B",
    "pin_size": "2-7/8 Reg",
    "flushing": "Center"
  },
  {
    "diameter_inch": "4-5/8",
    "diameter_mm": "117,5",
    "Iadc_code": "633Y",
    "name": "S63G",
    "pin_size": "2-7/8 Reg",
    "flushing": "Center"
  },
  {
    "diameter_inch": "4-5/8",
    "diameter_mm": "117,5",
    "Iadc_code": "633Y",
    "name": "S63GB",
    "pin_size": "2-7/8 Reg",
    "flushing": "Center"
  },
  {
    "diameter_inch": "4-3/4",
    "diameter_mm": "120,6",
    "Iadc_code": "211",
    "name": "S21",
    "pin_size": "2-7/8 Reg",
    "flushing": "Center"
  },
  {
    "diameter_inch": "4-3/4",
    "diameter_mm": "120,6",
    "Iadc_code": "211",
    "name": "S21B",
    "pin_size": "2-7/8 Reg",
    "flushing": "Center"
  },
  {
    "diameter_inch": "4-3/4",
    "diameter_mm": "120,6",
    "Iadc_code": "531X",
    "name": "S53X",
    "pin_size": "2-7/8 Reg",
    "flushing": "Center"
  },
  {
    "diameter_inch": "4-3/4",
    "diameter_mm": "120,6",
    "Iadc_code": "531X",
    "name": "S53XB",
    "pin_size": "2-7/8 Reg",
    "flushing": "Center"
  },
  {
    "diameter_inch": "4-3/4",
    "diameter_mm": "120,6",
    "Iadc_code": "531Y",
    "name": "S53",
    "pin_size": "2-7/8 Reg",
    "flushing": "Center"
  },
  {
    "diameter_inch": "4-3/4",
    "diameter_mm": "120,6",
    "Iadc_code": "531Y",
    "name": "S53B",
    "pin_size": "2-7/8 Reg",
    "flushing": "Center"
  },
  {
    "diameter_inch": "4-3/4",
    "diameter_mm": "120,6",
    "Iadc_code": "533X",
    "name": "S53XG",
    "pin_size": "2-7/8 Reg",
    "flushing": "Center"
  },
  {
    "diameter_inch": "4-3/4",
    "diameter_mm": "120,6",
    "Iadc_code": "533X",
    "name": "S53XGB",
    "pin_size": "2-7/8 Reg",
    "flushing": "Center"
  },
  {
    "diameter_inch": "4-3/4",
    "diameter_mm": "120,6",
    "Iadc_code": "533Y",
    "name": "S53G",
    "pin_size": "2-7/8 Reg",
    "flushing": "Center"
  },
  {
    "diameter_inch": "4-3/4",
    "diameter_mm": "120,6",
    "Iadc_code": "533Y",
    "name": "S53GB",
    "pin_size": "2-7/8 Reg",
    "flushing": "Center"
  },
  {
    "diameter_inch": "4-3/4",
    "diameter_mm": "120,6",
    "Iadc_code": "631Y",
    "name": "S63",
    "pin_size": "2-7/8 Reg",
    "flushing": "Center"
  },
  {
    "diameter_inch": "4-3/4",
    "diameter_mm": "120,6",
    "Iadc_code": "631Y",
    "name": "S63B",
    "pin_size": "2-7/8 Reg",
    "flushing": "Center"
  },
  {
    "diameter_inch": "4-3/4",
    "diameter_mm": "120,6",
    "Iadc_code": "633Y",
    "name": "S63G",
    "pin_size": "2-7/8 Reg",
    "flushing": "Center"
  },
  {
    "diameter_inch": "4-3/4",
    "diameter_mm": "120,6",
    "Iadc_code": "633Y",
    "name": "S63GB",
    "pin_size": "2-7/8 Reg",
    "flushing": "Center"
  },
  {
    "diameter_inch": "4-7/8",
    "diameter_mm": "123,8",
    "Iadc_code": "211",
    "name": "S21",
    "pin_size": "2-7/8 Reg",
    "flushing": "Center"
  },
  {
    "diameter_inch": "4-7/8",
    "diameter_mm": "123,8",
    "Iadc_code": "211",
    "name": "S21B",
    "pin_size": "2-7/8 Reg",
    "flushing": "Center"
  },
  {
    "diameter_inch": "4-7/8",
    "diameter_mm": "123,8",
    "Iadc_code": "311",
    "name": "S31",
    "pin_size": "2-7/8 Reg",
    "flushing": "Center"
  },
  {
    "diameter_inch": "4-7/8",
    "diameter_mm": "123,8",
    "Iadc_code": "311",
    "name": "S31B",
    "pin_size": "2-7/8 Reg",
    "flushing": "Center"
  },
  {
    "diameter_inch": "4-7/8",
    "diameter_mm": "123,8",
    "Iadc_code": "313",
    "name": "S31G",
    "pin_size": "2-7/8 Reg",
    "flushing": "Center"
  },
  {
    "diameter_inch": "4-7/8",
    "diameter_mm": "123,8",
    "Iadc_code": "313",
    "name": "S31GB",
    "pin_size": "2-7/8 Reg",
    "flushing": "Center"
  },
  {
    "diameter_inch": "4-7/8",
    "diameter_mm": "123,8",
    "Iadc_code": "531Y",
    "name": "S53",
    "pin_size": "2-7/8 Reg",
    "flushing": "Center"
  },
  {
    "diameter_inch": "4-7/8",
    "diameter_mm": "123,8",
    "Iadc_code": "531Y",
    "name": "S53B",
    "pin_size": "2-7/8 Reg",
    "flushing": "Center"
  },
  {
    "diameter_inch": "4-7/8",
    "diameter_mm": "123,8",
    "Iadc_code": "533Y",
    "name": "S53G",
    "pin_size": "2-7/8 Reg",
    "flushing": "Center"
  },
  {
    "diameter_inch": "4-7/8",
    "diameter_mm": "123,8",
    "Iadc_code": "533Y",
    "name": "S53GB",
    "pin_size": "2-7/8 Reg",
    "flushing": "Center"
  },
  {
    "diameter_inch": "4-7/8",
    "diameter_mm": "123,8",
    "Iadc_code": "631Y",
    "name": "S63",
    "pin_size": "2-7/8 Reg",
    "flushing": "Center"
  },
  {
    "diameter_inch": "4-7/8",
    "diameter_mm": "123,8",
    "Iadc_code": "631Y",
    "name": "S63B",
    "pin_size": "2-7/8 Reg",
    "flushing": "Center"
  },
  {
    "diameter_inch": "4-7/8",
    "diameter_mm": "123,8",
    "Iadc_code": "633Y",
    "name": "S63G",
    "pin_size": "2-7/8 Reg",
    "flushing": "Center"
  },
  {
    "diameter_inch": "4-7/8",
    "diameter_mm": "123,8",
    "Iadc_code": "633Y",
    "name": "S63GB",
    "pin_size": "2-7/8 Reg",
    "flushing": "Center"
  },
  {
    "diameter_inch": "5",
    "diameter_mm": "127,0",
    "Iadc_code": "211",
    "name": "S21",
    "pin_size": "2-7/8 Reg",
    "flushing": "Center"
  },
  {
    "diameter_inch": "5",
    "diameter_mm": "127,0",
    "Iadc_code": "211",
    "name": "S21B",
    "pin_size": "2-7/8 Reg",
    "flushing": "Center"
  },
  {
    "diameter_inch": "5",
    "diameter_mm": "127,0",
    "Iadc_code": "531Y",
    "name": "S53",
    "pin_size": "2-7/8 Reg",
    "flushing": "Center"
  },
  {
    "diameter_inch": "5",
    "diameter_mm": "127,0",
    "Iadc_code": "531Y",
    "name": "S53B",
    "pin_size": "2-7/8 Reg",
    "flushing": "Center"
  },
  {
    "diameter_inch": "5",
    "diameter_mm": "127,0",
    "Iadc_code": "533Y",
    "name": "S53G",
    "pin_size": "2-7/8 Reg",
    "flushing": "Center"
  },
  {
    "diameter_inch": "5",
    "diameter_mm": "127,0",
    "Iadc_code": "533Y",
    "name": "S53GB",
    "pin_size": "2-7/8 Reg",
    "flushing": "Center"
  },
  {
    "diameter_inch": "5",
    "diameter_mm": "127,0",
    "Iadc_code": "631Y",
    "name": "S63B",
    "pin_size": "2-7/8 Reg",
    "flushing": "Center"
  },
  {
    "diameter_inch": "5",
    "diameter_mm": "127,0",
    "Iadc_code": "631Y",
    "name": "S63",
    "pin_size": "2-7/8 Reg",
    "flushing": "Center"
  },
  {
    "diameter_inch": "5",
    "diameter_mm": "127,0",
    "Iadc_code": "633Y",
    "name": "S63G",
    "pin_size": "2-7/8 Reg",
    "flushing": "Center"
  },
  {
    "diameter_inch": "5",
    "diameter_mm": "127,0",
    "Iadc_code": "633Y",
    "name": "S63GB",
    "pin_size": "2-7/8 Reg",
    "flushing": "Center"
  },
  {
    "diameter_inch": "5-1/8",
    "diameter_mm": "130,2",
    "Iadc_code": "111",
    "name": "S11",
    "pin_size": "2-7/8 Reg",
    "flushing": "Center"
  },
  {
    "diameter_inch": "5-1/8",
    "diameter_mm": "130,2",
    "Iadc_code": "211",
    "name": "S21",
    "pin_size": "2-7/8 Reg",
    "flushing": "Center"
  },
  {
    "diameter_inch": "5-1/8",
    "diameter_mm": "130,2",
    "Iadc_code": "211",
    "name": "S21B",
    "pin_size": "2-7/8 Reg",
    "flushing": "Center"
  },
  {
    "diameter_inch": "5-1/8",
    "diameter_mm": "130,2",
    "Iadc_code": "213",
    "name": "S21G",
    "pin_size": "2-3/8 Reg",
    "flushing": "Center"
  },
  {
    "diameter_inch": "5-1/8",
    "diameter_mm": "130,2",
    "Iadc_code": "213",
    "name": "S21GB",
    "pin_size": "2-3/8 Reg",
    "flushing": "Center"
  },
  {
    "diameter_inch": "5-1/8",
    "diameter_mm": "130,2",
    "Iadc_code": "531Y",
    "name": "S53",
    "pin_size": "2-7/8 Reg",
    "flushing": "Center"
  },
  {
    "diameter_inch": "5-1/8",
    "diameter_mm": "130,2",
    "Iadc_code": "531Y",
    "name": "S53B",
    "pin_size": "2-7/8 Reg",
    "flushing": "Center"
  },
  {
    "diameter_inch": "5-1/8",
    "diameter_mm": "130,2",
    "Iadc_code": "533Y",
    "name": "S53G",
    "pin_size": "2-7/8 Reg",
    "flushing": "Center"
  },
  {
    "diameter_inch": "5-1/8",
    "diameter_mm": "130,2",
    "Iadc_code": "533Y",
    "name": "S53GB",
    "pin_size": "2-7/8 Reg",
    "flushing": "Center"
  },
  {
    "diameter_inch": "5-1/8",
    "diameter_mm": "130,2",
    "Iadc_code": "631Y",
    "name": "S63",
    "pin_size": "2-7/8 Reg",
    "flushing": "Center"
  },
  {
    "diameter_inch": "5-1/8",
    "diameter_mm": "130,2",
    "Iadc_code": "631Y",
    "name": "S63B",
    "pin_size": "2-7/8 Reg",
    "flushing": "Center"
  },
  {
    "diameter_inch": "5-1/8",
    "diameter_mm": "130,2",
    "Iadc_code": "631Y",
    "name": "SR63B",
    "pin_size": "2-7/8 Reg",
    "flushing": "Reverse circulation"
  },
  {
    "diameter_inch": "5-1/8",
    "diameter_mm": "130,2",
    "Iadc_code": "633Y",
    "name": "S63GB",
    "pin_size": "2-7/8 Reg",
    "flushing": "Center"
  },
  {
    "diameter_inch": "5-1/8",
    "diameter_mm": "130,2",
    "Iadc_code": "633Y",
    "name": "SR63GB",
    "pin_size": "2-7/8 Reg",
    "flushing": "Reverse circulation"
  },
  {
    "diameter_inch": "5-1/4",
    "diameter_mm": "133,4",
    "Iadc_code": "211",
    "name": "S21",
    "pin_size": "2-7/8 Reg",
    "flushing": "Center"
  },
  {
    "diameter_inch": "5-1/4",
    "diameter_mm": "133,4",
    "Iadc_code": "211",
    "name": "S21B",
    "pin_size": "2-7/8 Reg",
    "flushing": "Center"
  },
  {
    "diameter_inch": "5-1/4",
    "diameter_mm": "133,4",
    "Iadc_code": "631Y",
    "name": "S63",
    "pin_size": "2-7/8 Reg",
    "flushing": "Center"
  },
  {
    "diameter_inch": "5-1/4",
    "diameter_mm": "133,4",
    "Iadc_code": "631Y",
    "name": "S63B",
    "pin_size": "2-7/8 Reg",
    "flushing": "Center"
  },
  {
    "diameter_inch": "5-1/4",
    "diameter_mm": "133,4",
    "Iadc_code": "631Y",
    "name": "SR63B",
    "pin_size": "2-7/8 Reg",
    "flushing": "Reverse circulation"
  },
  {
    "diameter_inch": "5-1/4",
    "diameter_mm": "133,4",
    "Iadc_code": "633Y",
    "name": "S63G",
    "pin_size": "2-7/8 Reg",
    "flushing": "Center"
  },
  {
    "diameter_inch": "5-1/4",
    "diameter_mm": "133,4",
    "Iadc_code": "633Y",
    "name": "S63GB",
    "pin_size": "2-7/8 Reg",
    "flushing": "Center"
  },
  {
    "diameter_inch": "5-1/4",
    "diameter_mm": "133,4",
    "Iadc_code": "633Y",
    "name": "S63GB",
    "pin_size": "2-7/8 Reg",
    "flushing": "Center"
  },
  {
    "diameter_inch": "5-1/4",
    "diameter_mm": "133,4",
    "Iadc_code": "633Y",
    "name": "SR63GB",
    "pin_size": "2-7/8 Reg",
    "flushing": "Reverse circulation"
  },
  {
    "diameter_inch": "5-3/8",
    "diameter_mm": "136,5",
    "Iadc_code": "211",
    "name": "S21",
    "pin_size": "2-7/8 Reg",
    "flushing": "Center"
  },
  {
    "diameter_inch": "5-3/8",
    "diameter_mm": "136,5",
    "Iadc_code": "211",
    "name": "S21B",
    "pin_size": "2-7/8 Reg",
    "flushing": "Center"
  },
  {
    "diameter_inch": "5-3/8",
    "diameter_mm": "136,5",
    "Iadc_code": "631Y",
    "name": "S63",
    "pin_size": "2-7/8 Reg",
    "flushing": "Center"
  },
  {
    "diameter_inch": "5-3/8",
    "diameter_mm": "136,5",
    "Iadc_code": "631Y",
    "name": "S63B",
    "pin_size": "2-7/8 Reg",
    "flushing": "Center"
  },
  {
    "diameter_inch": "5-3/8",
    "diameter_mm": "136,5",
    "Iadc_code": "633Y",
    "name": "S63G",
    "pin_size": "2-7/8 Reg",
    "flushing": "Center"
  },
  {
    "diameter_inch": "5-3/8",
    "diameter_mm": "136,5",
    "Iadc_code": "633Y",
    "name": "S63GB",
    "pin_size": "2-7/8 Reg",
    "flushing": "Center"
  },
  {
    "diameter_inch": "5-1/2",
    "diameter_mm": "139,7",
    "Iadc_code": "211",
    "name": "S21",
    "pin_size": "2-7/8 Reg",
    "flushing": "Center"
  },
  {
    "diameter_inch": "5-1/2",
    "diameter_mm": "139,7",
    "Iadc_code": "211",
    "name": "S21B",
    "pin_size": "2-7/8 Reg",
    "flushing": "Center"
  },
  {
    "diameter_inch": "5-1/2",
    "diameter_mm": "139,7",
    "Iadc_code": "213",
    "name": "S21G",
    "pin_size": "2-7/8 Reg",
    "flushing": "Center"
  },
  {
    "diameter_inch": "5-1/2",
    "diameter_mm": "139,7",
    "Iadc_code": "213",
    "name": "S21GB",
    "pin_size": "2-7/8 Reg",
    "flushing": "Center"
  },
  {
    "diameter_inch": "5-1/2",
    "diameter_mm": "139,7",
    "Iadc_code": "311",
    "name": "S31",
    "pin_size": "2-7/8 Reg",
    "flushing": "Center"
  },
  {
    "diameter_inch": "5-1/2",
    "diameter_mm": "139,7",
    "Iadc_code": "311",
    "name": "S31B",
    "pin_size": "2-7/8 Reg",
    "flushing": "Center"
  },
  {
    "diameter_inch": "5-1/2",
    "diameter_mm": "139,7",
    "Iadc_code": "313",
    "name": "S31G",
    "pin_size": "2-7/8 Reg",
    "flushing": "Center"
  },
  {
    "diameter_inch": "5-1/2",
    "diameter_mm": "139,7",
    "Iadc_code": "313",
    "name": "S31GB",
    "pin_size": "2-7/8 Reg",
    "flushing": "Center"
  },
  {
    "diameter_inch": "5-1/2",
    "diameter_mm": "139,7",
    "Iadc_code": "511X",
    "name": "S51X",
    "pin_size": "2-7/8 Reg",
    "flushing": "Center"
  },
  {
    "diameter_inch": "5-1/2",
    "diameter_mm": "139,7",
    "Iadc_code": "511X",
    "name": "S51XB",
    "pin_size": "2-7/8 Reg",
    "flushing": "Center"
  },
  {
    "diameter_inch": "5-1/2",
    "diameter_mm": "139,7",
    "Iadc_code": "513X",
    "name": "S51XG",
    "pin_size": "2-7/8 Reg",
    "flushing": "Center"
  },
  {
    "diameter_inch": "5-1/2",
    "diameter_mm": "139,7",
    "Iadc_code": "513X",
    "name": "S51XGB",
    "pin_size": "2-7/8 Reg",
    "flushing": "Center"
  },
  {
    "diameter_inch": "5-1/2",
    "diameter_mm": "139,7",
    "Iadc_code": "531Y",
    "name": "S53",
    "pin_size": "2-7/8 Reg",
    "flushing": "Center"
  },
  {
    "diameter_inch": "5-1/2",
    "diameter_mm": "139,7",
    "Iadc_code": "531Y",
    "name": "S53B",
    "pin_size": "2-7/8 Reg",
    "flushing": "Center"
  },
  {
    "diameter_inch": "5-1/2",
    "diameter_mm": "139,7",
    "Iadc_code": "533Y",
    "name": "S53G",
    "pin_size": "2-7/8 Reg",
    "flushing": "Center"
  },
  {
    "diameter_inch": "5-1/2",
    "diameter_mm": "139,7",
    "Iadc_code": "533Y",
    "name": "S53GB",
    "pin_size": "2-7/8 Reg",
    "flushing": "Center"
  },
  {
    "diameter_inch": "5-1/2",
    "diameter_mm": "139,7",
    "Iadc_code": "631Y",
    "name": "S63",
    "pin_size": "2-7/8 Reg",
    "flushing": "Center"
  },
  {
    "diameter_inch": "5-1/2",
    "diameter_mm": "139,7",
    "Iadc_code": "631Y",
    "name": "S63B",
    "pin_size": "2-7/8 Reg",
    "flushing": "Center"
  },
  {
    "diameter_inch": "5-1/2",
    "diameter_mm": "139,7",
    "Iadc_code": "631Y",
    "name": "S63",
    "pin_size": "3-1/2 Reg",
    "flushing": "Center"
  },
  {
    "diameter_inch": "5-1/2",
    "diameter_mm": "139,7",
    "Iadc_code": "631Y",
    "name": "S63B",
    "pin_size": "3-1/2 Reg",
    "flushing": "Center"
  },
  {
    "diameter_inch": "5-1/2",
    "diameter_mm": "139,7",
    "Iadc_code": "633Y",
    "name": "S63G",
    "pin_size": "2-7/8 Reg",
    "flushing": "Center"
  },
  {
    "diameter_inch": "5-1/2",
    "diameter_mm": "139,7",
    "Iadc_code": "633Y",
    "name": "S63GB",
    "pin_size": "2-7/8 Reg",
    "flushing": "Center"
  },
  {
    "diameter_inch": "5-1/2",
    "diameter_mm": "139,7",
    "Iadc_code": "633Y",
    "name": "SR63GB",
    "pin_size": "2-7/8 Reg",
    "flushing": "Reverse circulation"
  },
  {
    "diameter_inch": "5-1/2",
    "diameter_mm": "139,7",
    "Iadc_code": "633Y",
    "name": "S63G",
    "pin_size": "3-1/2 Reg",
    "flushing": "Center"
  },
  {
    "diameter_inch": "5-1/2",
    "diameter_mm": "139,7",
    "Iadc_code": "633Y",
    "name": "S63GB",
    "pin_size": "3-1/2 Reg",
    "flushing": "Center"
  },
  {
    "diameter_inch": "5-1/2",
    "diameter_mm": "139,7",
    "Iadc_code": "731Y",
    "name": "S73",
    "pin_size": "3-1/2 Reg",
    "flushing": "Center"
  },
  {
    "diameter_inch": "5-1/2",
    "diameter_mm": "139,7",
    "Iadc_code": "731Y",
    "name": "S73B",
    "pin_size": "3-1/2 Reg",
    "flushing": "Center"
  },
  {
    "diameter_inch": "5-1/2",
    "diameter_mm": "139,7",
    "Iadc_code": "733Y",
    "name": "S73G",
    "pin_size": "3-1/2 Reg",
    "flushing": "Center"
  },
  {
    "diameter_inch": "5-1/2",
    "diameter_mm": "139,7",
    "Iadc_code": "733Y",
    "name": "S73GB",
    "pin_size": "3-1/2 Reg",
    "flushing": "Center"
  },
  {
    "diameter_inch": "5-5/8",
    "diameter_mm": "142,9",
    "Iadc_code": "211",
    "name": "S21",
    "pin_size": "3-1/2 Reg",
    "flushing": "Center"
  },
  {
    "diameter_inch": "5-5/8",
    "diameter_mm": "142,9",
    "Iadc_code": "211",
    "name": "S21B",
    "pin_size": "3-1/2 Reg",
    "flushing": "Center"
  },
  {
    "diameter_inch": "5-5/8",
    "diameter_mm": "142,9",
    "Iadc_code": "213",
    "name": "S21G",
    "pin_size": "3-1/2 Reg",
    "flushing": "Center"
  },
  {
    "diameter_inch": "5-5/8",
    "diameter_mm": "142,9",
    "Iadc_code": "213",
    "name": "S21GB",
    "pin_size": "3-1/2 Reg",
    "flushing": "Center"
  },
  {
    "diameter_inch": "5-5/8",
    "diameter_mm": "142,9",
    "Iadc_code": "311",
    "name": "S31",
    "pin_size": "3-1/2 Reg",
    "flushing": "Center"
  },
  {
    "diameter_inch": "5-5/8",
    "diameter_mm": "142,9",
    "Iadc_code": "311",
    "name": "S31B",
    "pin_size": "3-1/2 Reg",
    "flushing": "Center"
  },
  {
    "diameter_inch": "5-5/8",
    "diameter_mm": "142,9",
    "Iadc_code": "313",
    "name": "S31G",
    "pin_size": "3-1/2 Reg",
    "flushing": "Center"
  },
  {
    "diameter_inch": "5-5/8",
    "diameter_mm": "142,9",
    "Iadc_code": "313",
    "name": "S31GB",
    "pin_size": "3-1/2 Reg",
    "flushing": "Center"
  },
  {
    "diameter_inch": "5-5/8",
    "diameter_mm": "142,9",
    "Iadc_code": "531X",
    "name": "S53X",
    "pin_size": "3-1/2 Reg",
    "flushing": "Center"
  },
  {
    "diameter_inch": "5-5/8",
    "diameter_mm": "142,9",
    "Iadc_code": "531X",
    "name": "S53XB",
    "pin_size": "3-1/2 Reg",
    "flushing": "Center"
  },
  {
    "diameter_inch": "5-5/8",
    "diameter_mm": "142,9",
    "Iadc_code": "531Y",
    "name": "S53",
    "pin_size": "3-1/2 Reg",
    "flushing": "Center"
  },
  {
    "diameter_inch": "5-5/8",
    "diameter_mm": "142,9",
    "Iadc_code": "531Y",
    "name": "S53B",
    "pin_size": "3-1/2 Reg",
    "flushing": "Center"
  },
  {
    "diameter_inch": "5-5/8",
    "diameter_mm": "142,9",
    "Iadc_code": "533X",
    "name": "S53XG",
    "pin_size": "3-1/2 Reg",
    "flushing": "Center"
  },
  {
    "diameter_inch": "5-5/8",
    "diameter_mm": "142,9",
    "Iadc_code": "533X",
    "name": "S53XGB",
    "pin_size": "3-1/2 Reg",
    "flushing": "Center"
  },
  {
    "diameter_inch": "5-5/8",
    "diameter_mm": "142,9",
    "Iadc_code": "533Y",
    "name": "S53G",
    "pin_size": "3-1/2 Reg",
    "flushing": "Center"
  },
  {
    "diameter_inch": "5-5/8",
    "diameter_mm": "142,9",
    "Iadc_code": "533Y",
    "name": "S53GB",
    "pin_size": "3-1/2 Reg",
    "flushing": "Center"
  },
  {
    "diameter_inch": "5-5/8",
    "diameter_mm": "142,9",
    "Iadc_code": "631Y",
    "name": "S63",
    "pin_size": "3-1/2 Reg",
    "flushing": "Center"
  },
  {
    "diameter_inch": "5-5/8",
    "diameter_mm": "142,9",
    "Iadc_code": "631Y",
    "name": "S63B",
    "pin_size": "3-1/2 Reg",
    "flushing": "Center"
  },
  {
    "diameter_inch": "5-5/8",
    "diameter_mm": "142,9",
    "Iadc_code": "633Y",
    "name": "S63G",
    "pin_size": "3-1/2 Reg",
    "flushing": "Center"
  },
  {
    "diameter_inch": "5-5/8",
    "diameter_mm": "142,9",
    "Iadc_code": "633Y",
    "name": "S63GB",
    "pin_size": "3-1/2 Reg",
    "flushing": "Center"
  },
  {
    "diameter_inch": "5-5/8",
    "diameter_mm": "142,9",
    "Iadc_code": "731Y",
    "name": "S73",
    "pin_size": "3-1/2 Reg",
    "flushing": "Center"
  },
  {
    "diameter_inch": "5-5/8",
    "diameter_mm": "142,9",
    "Iadc_code": "731Y",
    "name": "S73B",
    "pin_size": "3-1/2 Reg",
    "flushing": "Center"
  },
  {
    "diameter_inch": "5-5/8",
    "diameter_mm": "142,9",
    "Iadc_code": "733Y",
    "name": "S73G",
    "pin_size": "3-1/2 Reg",
    "flushing": "Center"
  },
  {
    "diameter_inch": "5-5/8",
    "diameter_mm": "142,9",
    "Iadc_code": "733Y",
    "name": "S73GB",
    "pin_size": "3-1/2 Reg",
    "flushing": "Center"
  },
  {
    "diameter_inch": "5-3/4",
    "diameter_mm": "146,1",
    "Iadc_code": "211",
    "name": "S21",
    "pin_size": "3-1/2 Reg",
    "flushing": "Center"
  },
  {
    "diameter_inch": "5-3/4",
    "diameter_mm": "146,1",
    "Iadc_code": "211",
    "name": "S21B",
    "pin_size": "3-1/2 Reg",
    "flushing": "Center"
  },
  {
    "diameter_inch": "5-3/4",
    "diameter_mm": "146,1",
    "Iadc_code": "531Y",
    "name": "S53",
    "pin_size": "3-1/2 Reg",
    "flushing": "Center"
  },
  {
    "diameter_inch": "5-3/4",
    "diameter_mm": "146,1",
    "Iadc_code": "531Y",
    "name": "S53B",
    "pin_size": "3-1/2 Reg",
    "flushing": "Center"
  },
  {
    "diameter_inch": "5-3/4",
    "diameter_mm": "146,1",
    "Iadc_code": "533Y",
    "name": "S53G",
    "pin_size": "3-1/2 Reg",
    "flushing": "Center"
  },
  {
    "diameter_inch": "5-3/4",
    "diameter_mm": "146,1",
    "Iadc_code": "533Y",
    "name": "S53GB",
    "pin_size": "3-1/2 Reg",
    "flushing": "Center"
  },
  {
    "diameter_inch": "5-3/4",
    "diameter_mm": "146,1",
    "Iadc_code": "631Y",
    "name": "S63B",
    "pin_size": "3-1/2 Reg",
    "flushing": "Center"
  },
  {
    "diameter_inch": "5-3/4",
    "diameter_mm": "146,1",
    "Iadc_code": "631Y",
    "name": "S63",
    "pin_size": "3-1/2 Reg",
    "flushing": "Center"
  },
  {
    "diameter_inch": "5-3/4",
    "diameter_mm": "146,1",
    "Iadc_code": "633Y",
    "name": "S63G",
    "pin_size": "3-1/2 Reg",
    "flushing": "Center"
  },
  {
    "diameter_inch": "5-3/4",
    "diameter_mm": "146,1",
    "Iadc_code": "633Y",
    "name": "S63GB",
    "pin_size": "3-1/2 Reg",
    "flushing": "Center"
  },
  {
    "diameter_inch": "5-3/4",
    "diameter_mm": "146,1",
    "Iadc_code": "731Y",
    "name": "S73",
    "pin_size": "3-1/2 Reg",
    "flushing": "Center"
  },
  {
    "diameter_inch": "5-3/4",
    "diameter_mm": "146,1",
    "Iadc_code": "731Y",
    "name": "S73B",
    "pin_size": "3-1/2 Reg",
    "flushing": "Center"
  },
  {
    "diameter_inch": "5-3/4",
    "diameter_mm": "146,1",
    "Iadc_code": "733Y",
    "name": "S73G",
    "pin_size": "3-1/2 Reg",
    "flushing": "Center"
  },
  {
    "diameter_inch": "5-3/4",
    "diameter_mm": "146,1",
    "Iadc_code": "733Y",
    "name": "S73GB",
    "pin_size": "3-1/2 Reg",
    "flushing": "Center"
  },
  {
    "diameter_inch": "5-7/8",
    "diameter_mm": "149,2",
    "Iadc_code": "211",
    "name": "S21",
    "pin_size": "3-1/2 Reg",
    "flushing": "Center"
  },
  {
    "diameter_inch": "5-7/8",
    "diameter_mm": "149,2",
    "Iadc_code": "211",
    "name": "S21B",
    "pin_size": "3-1/2 Reg",
    "flushing": "Center"
  },
  {
    "diameter_inch": "5-7/8",
    "diameter_mm": "149,2",
    "Iadc_code": "311",
    "name": "S31",
    "pin_size": "3-1/2 Reg",
    "flushing": "Center"
  },
  {
    "diameter_inch": "5-7/8",
    "diameter_mm": "149,2",
    "Iadc_code": "311",
    "name": "S31B",
    "pin_size": "3-1/2 Reg",
    "flushing": "Center"
  },
  {
    "diameter_inch": "5-7/8",
    "diameter_mm": "149,2",
    "Iadc_code": "313",
    "name": "S31G",
    "pin_size": "3-1/2 Reg",
    "flushing": "Center"
  },
  {
    "diameter_inch": "5-7/8",
    "diameter_mm": "149,2",
    "Iadc_code": "313",
    "name": "S31GB",
    "pin_size": "3-1/2 Reg",
    "flushing": "Center"
  },
  {
    "diameter_inch": "5-7/8",
    "diameter_mm": "149,2",
    "Iadc_code": "531Y",
    "name": "S53",
    "pin_size": "3-1/2 Reg",
    "flushing": "Center"
  },
  {
    "diameter_inch": "5-7/8",
    "diameter_mm": "149,2",
    "Iadc_code": "531Y",
    "name": "S53B",
    "pin_size": "3-1/2 Reg",
    "flushing": "Center"
  },
  {
    "diameter_inch": "5-7/8",
    "diameter_mm": "149,2",
    "Iadc_code": "533Y",
    "name": "S53G",
    "pin_size": "3-1/2 Reg",
    "flushing": "Center"
  },
  {
    "diameter_inch": "5-7/8",
    "diameter_mm": "149,2",
    "Iadc_code": "533Y",
    "name": "S53GB",
    "pin_size": "3-1/2 Reg",
    "flushing": "Center"
  },
  {
    "diameter_inch": "5-7/8",
    "diameter_mm": "149,2",
    "Iadc_code": "631Y",
    "name": "S63",
    "pin_size": "3-1/2 Reg",
    "flushing": "Center"
  },
  {
    "diameter_inch": "5-7/8",
    "diameter_mm": "149,2",
    "Iadc_code": "631Y",
    "name": "S63B",
    "pin_size": "3-1/2 Reg",
    "flushing": "Center"
  },
  {
    "diameter_inch": "5-7/8",
    "diameter_mm": "149,2",
    "Iadc_code": "633Y",
    "name": "S63G",
    "pin_size": "3-1/2 Reg",
    "flushing": "Center"
  },
  {
    "diameter_inch": "5-7/8",
    "diameter_mm": "149,2",
    "Iadc_code": "633Y",
    "name": "S63GB",
    "pin_size": "3-1/2 Reg",
    "flushing": "Center"
  },
  {
    "diameter_inch": "5-7/8",
    "diameter_mm": "149,2",
    "Iadc_code": "731Y",
    "name": "S73",
    "pin_size": "3-1/2 Reg",
    "flushing": "Center"
  },
  {
    "diameter_inch": "5-7/8",
    "diameter_mm": "149,2",
    "Iadc_code": "731Y",
    "name": "S73B",
    "pin_size": "3-1/2 Reg",
    "flushing": "Center"
  },
  {
    "diameter_inch": "5-7/8",
    "diameter_mm": "149,2",
    "Iadc_code": "733Y",
    "name": "S73G",
    "pin_size": "3-1/2 Reg",
    "flushing": "Center"
  },
  {
    "diameter_inch": "5-7/8",
    "diameter_mm": "149,2",
    "Iadc_code": "733Y",
    "name": "S73GB",
    "pin_size": "3-1/2 Reg",
    "flushing": "Center"
  },
  {
    "diameter_inch": "6",
    "diameter_mm": "152,4",
    "Iadc_code": "211",
    "name": "S21",
    "pin_size": "3-1/2 Reg",
    "flushing": "Center"
  },
  {
    "diameter_inch": "6",
    "diameter_mm": "152,4",
    "Iadc_code": "211",
    "name": "S21B",
    "pin_size": "3-1/2 Reg",
    "flushing": "Center"
  },
  {
    "diameter_inch": "6",
    "diameter_mm": "152,4",
    "Iadc_code": "311",
    "name": "S31",
    "pin_size": "3-1/2 Reg",
    "flushing": "Center"
  },
  {
    "diameter_inch": "6",
    "diameter_mm": "152,4",
    "Iadc_code": "311",
    "name": "S31B",
    "pin_size": "3-1/2 Reg",
    "flushing": "Center"
  },
  {
    "diameter_inch": "6",
    "diameter_mm": "152,4",
    "Iadc_code": "313",
    "name": "S31G",
    "pin_size": "3-1/2 Reg",
    "flushing": "Center"
  },
  {
    "diameter_inch": "6",
    "diameter_mm": "152,4",
    "Iadc_code": "531Y",
    "name": "S53",
    "pin_size": "3-1/2 Reg",
    "flushing": "Center"
  },
  {
    "diameter_inch": "6",
    "diameter_mm": "152,4",
    "Iadc_code": "531Y",
    "name": "S53B",
    "pin_size": "3-1/2 Reg",
    "flushing": "Center"
  },
  {
    "diameter_inch": "6",
    "diameter_mm": "152,4",
    "Iadc_code": "533Y",
    "name": "S53G",
    "pin_size": "3-1/2 Reg",
    "flushing": "Center"
  },
  {
    "diameter_inch": "6",
    "diameter_mm": "152,4",
    "Iadc_code": "533Y",
    "name": "S53GB",
    "pin_size": "3-1/2 Reg",
    "flushing": "Center"
  },
  {
    "diameter_inch": "6",
    "diameter_mm": "152,4",
    "Iadc_code": "631Y",
    "name": "S63",
    "pin_size": "3-1/2 Reg",
    "flushing": "Center"
  },
  {
    "diameter_inch": "6",
    "diameter_mm": "152,4",
    "Iadc_code": "631Y",
    "name": "S63B",
    "pin_size": "3-1/2 Reg",
    "flushing": "Center"
  },
  {
    "diameter_inch": "6",
    "diameter_mm": "152,4",
    "Iadc_code": "633Y",
    "name": "S63G",
    "pin_size": "3-1/2 Reg",
    "flushing": "Center"
  },
  {
    "diameter_inch": "6",
    "diameter_mm": "152,4",
    "Iadc_code": "633Y",
    "name": "S63GB",
    "pin_size": "3-1/2 Reg",
    "flushing": "Center"
  },
  {
    "diameter_inch": "6-1/8",
    "diameter_mm": "155,6",
    "Iadc_code": "211",
    "name": "S21",
    "pin_size": "3-1/2 Reg",
    "flushing": "Center"
  },
  {
    "diameter_inch": "6-1/8",
    "diameter_mm": "155,6",
    "Iadc_code": "211",
    "name": "S21B",
    "pin_size": "3-1/2 Reg",
    "flushing": "Center"
  },
  {
    "diameter_inch": "6-1/8",
    "diameter_mm": "155,6",
    "Iadc_code": "631Y",
    "name": "S63",
    "pin_size": "3-1/2 Reg",
    "flushing": "Center"
  },
  {
    "diameter_inch": "6-1/8",
    "diameter_mm": "155,6",
    "Iadc_code": "631Y",
    "name": "S63B",
    "pin_size": "3-1/2 Reg",
    "flushing": "Center"
  },
  {
    "diameter_inch": "6-1/8",
    "diameter_mm": "155,6",
    "Iadc_code": "633Y",
    "name": "S63G",
    "pin_size": "3-1/2 Reg",
    "flushing": "Center"
  },
  {
    "diameter_inch": "6-1/8",
    "diameter_mm": "155,6",
    "Iadc_code": "633Y",
    "name": "S63GB",
    "pin_size": "3-1/2 Reg",
    "flushing": "Center"
  },
  {
    "diameter_inch": "6-1/4",
    "diameter_mm": "158,8",
    "Iadc_code": "211",
    "name": "S21",
    "pin_size": "3-1/2 Reg",
    "flushing": "Center"
  },
  {
    "diameter_inch": "6-1/4",
    "diameter_mm": "158,8",
    "Iadc_code": "211",
    "name": "S21B",
    "pin_size": "3-1/2 Reg",
    "flushing": "Center"
  },
  {
    "diameter_inch": "6-1/4",
    "diameter_mm": "158,8",
    "Iadc_code": "311",
    "name": "S31",
    "pin_size": "3-1/2 Reg",
    "flushing": "Center"
  },
  {
    "diameter_inch": "6-1/4",
    "diameter_mm": "158,8",
    "Iadc_code": "311",
    "name": "S31B",
    "pin_size": "3-1/2 Reg",
    "flushing": "Center"
  },
  {
    "diameter_inch": "6-1/4",
    "diameter_mm": "158,8",
    "Iadc_code": "313",
    "name": "S31G",
    "pin_size": "3-1/2 Reg",
    "flushing": "Center"
  },
  {
    "diameter_inch": "6-1/4",
    "diameter_mm": "158,8",
    "Iadc_code": "313",
    "name": "S31GB",
    "pin_size": "3-1/2 Reg",
    "flushing": "Center"
  },
  {
    "diameter_inch": "6-1/4",
    "diameter_mm": "158,8",
    "Iadc_code": "631Y",
    "name": "S63",
    "pin_size": "3-1/2 Reg",
    "flushing": "Center"
  },
  {
    "diameter_inch": "6-1/4",
    "diameter_mm": "158,8",
    "Iadc_code": "631Y",
    "name": "S63B",
    "pin_size": "3-1/2 Reg",
    "flushing": "Center"
  },
  {
    "diameter_inch": "6-1/4",
    "diameter_mm": "158,8",
    "Iadc_code": "633Y",
    "name": "S63G",
    "pin_size": "3-1/2 Reg",
    "flushing": "Center"
  },
  {
    "diameter_inch": "6-1/4",
    "diameter_mm": "158,8",
    "Iadc_code": "633Y",
    "name": "S63GB",
    "pin_size": "3-1/2 Reg",
    "flushing": "Center"
  },
  {
    "diameter_inch": "6-1/2",
    "diameter_mm": "165,1",
    "Iadc_code": "211",
    "name": "S21",
    "pin_size": "3-1/2 Reg",
    "flushing": "Center"
  },
  {
    "diameter_inch": "6-1/2",
    "diameter_mm": "165,1",
    "Iadc_code": "211",
    "name": "S21B",
    "pin_size": "3-1/2 Reg",
    "flushing": "Center"
  },
  {
    "diameter_inch": "6-1/2",
    "diameter_mm": "165,1",
    "Iadc_code": "531Y",
    "name": "S53",
    "pin_size": "3-1/2 Reg",
    "flushing": "Center"
  },
  {
    "diameter_inch": "6-1/2",
    "diameter_mm": "165,1",
    "Iadc_code": "531Y",
    "name": "S53B",
    "pin_size": "3-1/2 Reg",
    "flushing": "Center"
  },
  {
    "diameter_inch": "6-1/2",
    "diameter_mm": "165,1",
    "Iadc_code": "533Y",
    "name": "S53G",
    "pin_size": "3-1/2 Reg",
    "flushing": "Center"
  },
  {
    "diameter_inch": "6-1/2",
    "diameter_mm": "165,1",
    "Iadc_code": "533Y",
    "name": "S53GB",
    "pin_size": "3-1/2 Reg",
    "flushing": "Center"
  },
  {
    "diameter_inch": "6-1/2",
    "diameter_mm": "165,1",
    "Iadc_code": "631Y",
    "name": "S63",
    "pin_size": "3-1/2 Reg",
    "flushing": "Center"
  },
  {
    "diameter_inch": "6-1/2",
    "diameter_mm": "165,1",
    "Iadc_code": "631Y",
    "name": "S63B",
    "pin_size": "3-1/2 Reg",
    "flushing": "Center"
  },
  {
    "diameter_inch": "6-1/2",
    "diameter_mm": "165,1",
    "Iadc_code": "633Y",
    "name": "S63G",
    "pin_size": "3-1/2 Reg",
    "flushing": "Center"
  },
  {
    "diameter_inch": "6-1/2",
    "diameter_mm": "165,1",
    "Iadc_code": "633Y",
    "name": "S63GB",
    "pin_size": "3-1/2 Reg",
    "flushing": "Center"
  },
  {
    "diameter_inch": "6-5/8",
    "diameter_mm": "168,3",
    "Iadc_code": "211",
    "name": "S21",
    "pin_size": "3-1/2 Reg",
    "flushing": "Center"
  },
  {
    "diameter_inch": "6-5/8",
    "diameter_mm": "168,3",
    "Iadc_code": "211",
    "name": "S21B",
    "pin_size": "3-1/2 Reg",
    "flushing": "Center"
  },
  {
    "diameter_inch": "6-3/4",
    "diameter_mm": "171,4",
    "Iadc_code": "211",
    "name": "S21",
    "pin_size": "3-1/2 Reg",
    "flushing": "Center"
  },
  {
    "diameter_inch": "6-3/4",
    "diameter_mm": "171,4",
    "Iadc_code": "211",
    "name": "S21B",
    "pin_size": "3-1/2 Reg",
    "flushing": "Center"
  },
  {
    "diameter_inch": "6-3/4",
    "diameter_mm": "171,4",
    "Iadc_code": "311",
    "name": "S31",
    "pin_size": "3-1/2 Reg",
    "flushing": "Center"
  },
  {
    "diameter_inch": "6-3/4",
    "diameter_mm": "171,4",
    "Iadc_code": "311",
    "name": "S31B",
    "pin_size": "3-1/2 Reg",
    "flushing": "Center"
  },
  {
    "diameter_inch": "6-3/4",
    "diameter_mm": "171,4",
    "Iadc_code": "313",
    "name": "S31G",
    "pin_size": "3-1/2 Reg",
    "flushing": "Center"
  },
  {
    "diameter_inch": "6-3/4",
    "diameter_mm": "171,4",
    "Iadc_code": "313",
    "name": "S31GB",
    "pin_size": "3-1/2 Reg",
    "flushing": "Center"
  },
  {
    "diameter_inch": "6-3/4",
    "diameter_mm": "171,4",
    "Iadc_code": "531Y",
    "name": "S53",
    "pin_size": "3-1/2 Reg",
    "flushing": "Center"
  },
  {
    "diameter_inch": "6-3/4",
    "diameter_mm": "171,4",
    "Iadc_code": "531Y",
    "name": "S53B",
    "pin_size": "3-1/2 Reg",
    "flushing": "Center"
  },
  {
    "diameter_inch": "6-3/4",
    "diameter_mm": "171,4",
    "Iadc_code": "533Y",
    "name": "S53G",
    "pin_size": "3-1/2 Reg",
    "flushing": "Center"
  },
  {
    "diameter_inch": "6-3/4",
    "diameter_mm": "171,4",
    "Iadc_code": "533Y",
    "name": "S53GB",
    "pin_size": "3-1/2 Reg",
    "flushing": "Center"
  },
  {
    "diameter_inch": "6-3/4",
    "diameter_mm": "171,4",
    "Iadc_code": "631Y",
    "name": "S63",
    "pin_size": "3-1/2 Reg",
    "flushing": "Center"
  },
  {
    "diameter_inch": "6-3/4",
    "diameter_mm": "171,4",
    "Iadc_code": "631Y",
    "name": "S63B",
    "pin_size": "3-1/2 Reg",
    "flushing": "Center"
  },
  {
    "diameter_inch": "6-3/4",
    "diameter_mm": "171,4",
    "Iadc_code": "633Y",
    "name": "S63G",
    "pin_size": "3-1/2 Reg",
    "flushing": "Center"
  },
  {
    "diameter_inch": "6-3/4",
    "diameter_mm": "171,4",
    "Iadc_code": "633Y",
    "name": "S63GB",
    "pin_size": "3-1/2 Reg",
    "flushing": "Center"
  },
  {
    "diameter_inch": "6-3/4",
    "diameter_mm": "171,4",
    "Iadc_code": "731Y",
    "name": "S73",
    "pin_size": "3-1/2 Reg",
    "flushing": "Center"
  },
  {
    "diameter_inch": "6-3/4",
    "diameter_mm": "171,4",
    "Iadc_code": "731Y",
    "name": "S73B",
    "pin_size": "3-1/2 Reg",
    "flushing": "Center"
  },
  {
    "diameter_inch": "6-3/4",
    "diameter_mm": "171,4",
    "Iadc_code": "733Y",
    "name": "S73G",
    "pin_size": "3-1/2 Reg",
    "flushing": "Center"
  },
  {
    "diameter_inch": "6-3/4",
    "diameter_mm": "171,4",
    "Iadc_code": "733Y",
    "name": "S73GB",
    "pin_size": "3-1/2 Reg",
    "flushing": "Center"
  },
  {
    "diameter_inch": "7",
    "diameter_mm": "177,8",
    "Iadc_code": "211",
    "name": "S21",
    "pin_size": "3-1/2 Reg",
    "flushing": "Center"
  },
  {
    "diameter_inch": "7",
    "diameter_mm": "177,8",
    "Iadc_code": "211",
    "name": "S21B",
    "pin_size": "3-1/2 Reg",
    "flushing": "Center"
  },
  {
    "diameter_inch": "7",
    "diameter_mm": "177,8",
    "Iadc_code": "531Y",
    "name": "S53",
    "pin_size": "3-1/2 Reg",
    "flushing": "Center"
  },
  {
    "diameter_inch": "7",
    "diameter_mm": "177,8",
    "Iadc_code": "531Y",
    "name": "S53B",
    "pin_size": "3-1/2 Reg",
    "flushing": "Center"
  },
  {
    "diameter_inch": "7",
    "diameter_mm": "177,8",
    "Iadc_code": "533Y",
    "name": "S53G",
    "pin_size": "3-1/2 Reg",
    "flushing": "Center"
  },
  {
    "diameter_inch": "7",
    "diameter_mm": "177,8",
    "Iadc_code": "533Y",
    "name": "S53GB",
    "pin_size": "3-1/2 Reg",
    "flushing": "Center"
  },
  {
    "diameter_inch": "7-1/8",
    "diameter_mm": "181,0",
    "Iadc_code": "211",
    "name": "S21",
    "pin_size": "3-1/2 Reg",
    "flushing": "Center"
  },
  {
    "diameter_inch": "7-1/8",
    "diameter_mm": "181,0",
    "Iadc_code": "211",
    "name": "S21B",
    "pin_size": "3-1/2 Reg",
    "flushing": "Center"
  },
  {
    "diameter_inch": "7-1/8",
    "diameter_mm": "181,0",
    "Iadc_code": "531Y",
    "name": "S53",
    "pin_size": "3-1/2 Reg",
    "flushing": "Center"
  },
  {
    "diameter_inch": "7-1/8",
    "diameter_mm": "181,0",
    "Iadc_code": "531Y",
    "name": "S53B",
    "pin_size": "3-1/2 Reg",
    "flushing": "Center"
  },
  {
    "diameter_inch": "7-1/8",
    "diameter_mm": "181,0",
    "Iadc_code": "533Y",
    "name": "S53G",
    "pin_size": "3-1/2 Reg",
    "flushing": "Center"
  },
  {
    "diameter_inch": "7-1/8",
    "diameter_mm": "181,0",
    "Iadc_code": "533Y",
    "name": "S53GB",
    "pin_size": "3-1/2 Reg",
    "flushing": "Center"
  },
  {
    "diameter_inch": "7-1/8",
    "diameter_mm": "181,0",
    "Iadc_code": "631Y",
    "name": "S63",
    "pin_size": "3-1/2 Reg",
    "flushing": "Center"
  },
  {
    "diameter_inch": "7-1/8",
    "diameter_mm": "181,0",
    "Iadc_code": "631Y",
    "name": "S63B",
    "pin_size": "3-1/2 Reg",
    "flushing": "Center"
  },
  {
    "diameter_inch": "7-1/8",
    "diameter_mm": "181,0",
    "Iadc_code": "633Y",
    "name": "S63G",
    "pin_size": "3-1/2 Reg",
    "flushing": "Center"
  },
  {
    "diameter_inch": "7-1/8",
    "diameter_mm": "181,0",
    "Iadc_code": "633Y",
    "name": "S63GB",
    "pin_size": "3-1/2 Reg",
    "flushing": "Center"
  },
  {
    "diameter_inch": "7-1/4",
    "diameter_mm": "184,1",
    "Iadc_code": "731Y",
    "name": "S73",
    "pin_size": "3-1/2 Reg",
    "flushing": "Center"
  },
  {
    "diameter_inch": "7-1/4",
    "diameter_mm": "184,1",
    "Iadc_code": "731Y",
    "name": "S73B",
    "pin_size": "3-1/2 Reg",
    "flushing": "Center"
  },
  {
    "diameter_inch": "7-1/4",
    "diameter_mm": "184,1",
    "Iadc_code": "733Y",
    "name": "S73G",
    "pin_size": "3-1/2 Reg",
    "flushing": "Center"
  },
  {
    "diameter_inch": "7-1/4",
    "diameter_mm": "184,1",
    "Iadc_code": "733Y",
    "name": "S73GB",
    "pin_size": "3-1/2 Reg",
    "flushing": "Center"
  },
  {
    "diameter_inch": "7-3/8",
    "diameter_mm": "187,3",
    "Iadc_code": "211",
    "name": "S21",
    "pin_size": "3-1/2 Reg",
    "flushing": "Center"
  },
  {
    "diameter_inch": "7-3/8",
    "diameter_mm": "187,3",
    "Iadc_code": "211",
    "name": "S21B",
    "pin_size": "3-1/2 Reg",
    "flushing": "Center"
  },
  {
    "diameter_inch": "7-3/8",
    "diameter_mm": "187,3",
    "Iadc_code": "531Y",
    "name": "S53",
    "pin_size": "3-1/2 Reg",
    "flushing": "Center"
  },
  {
    "diameter_inch": "7-3/8",
    "diameter_mm": "187,3",
    "Iadc_code": "531Y",
    "name": "S53B",
    "pin_size": "3-1/2 Reg",
    "flushing": "Center"
  },
  {
    "diameter_inch": "7-3/8",
    "diameter_mm": "187,3",
    "Iadc_code": "533Y",
    "name": "S53G",
    "pin_size": "3-1/2 Reg",
    "flushing": "Center"
  },
  {
    "diameter_inch": "7-3/8",
    "diameter_mm": "187,3",
    "Iadc_code": "533Y",
    "name": "S53GB",
    "pin_size": "3-1/2 Reg",
    "flushing": "Center"
  },
  {
    "diameter_inch": "7-3/8",
    "diameter_mm": "187,3",
    "Iadc_code": "631Y",
    "name": "S63",
    "pin_size": "3-1/2 Reg",
    "flushing": "Center"
  },
  {
    "diameter_inch": "7-3/8",
    "diameter_mm": "187,3",
    "Iadc_code": "631Y",
    "name": "S63B",
    "pin_size": "3-1/2 Reg",
    "flushing": "Center"
  },
  {
    "diameter_inch": "7-3/8",
    "diameter_mm": "187,3",
    "Iadc_code": "633Y",
    "name": "S63G",
    "pin_size": "3-1/2 Reg",
    "flushing": "Center"
  },
  {
    "diameter_inch": "7-3/8",
    "diameter_mm": "187,3",
    "Iadc_code": "633Y",
    "name": "S63GB",
    "pin_size": "3-1/2 Reg",
    "flushing": "Center"
  },
  {
    "diameter_inch": "7-1/2",
    "diameter_mm": "190,5",
    "Iadc_code": "211",
    "name": "S21",
    "pin_size": "4-1/2 Reg",
    "flushing": "Center"
  },
  {
    "diameter_inch": "7-1/2",
    "diameter_mm": "190,5",
    "Iadc_code": "211",
    "name": "S21B ",
    "pin_size": "4-1/2 Reg",
    "flushing": "Center"
  },
  {
    "diameter_inch": "7-1/2",
    "diameter_mm": "190,5",
    "Iadc_code": "311",
    "name": "S31",
    "pin_size": "4-1/2 Reg",
    "flushing": "Center"
  },
  {
    "diameter_inch": "7-1/2",
    "diameter_mm": "190,5",
    "Iadc_code": "311",
    "name": "S31B",
    "pin_size": "4-1/2 Reg",
    "flushing": "Center"
  },
  {
    "diameter_inch": "7-1/2",
    "diameter_mm": "190,5",
    "Iadc_code": "313",
    "name": "S31G",
    "pin_size": "4-1/2 Reg",
    "flushing": "Center"
  },
  {
    "diameter_inch": "7-1/2",
    "diameter_mm": "190,5",
    "Iadc_code": "313",
    "name": "S31GB",
    "pin_size": "4-1/2 Reg",
    "flushing": "Center"
  },
  {
    "diameter_inch": "7-1/2",
    "diameter_mm": "190,5",
    "Iadc_code": "731Y",
    "name": "S73",
    "pin_size": "4-1/2 Reg",
    "flushing": "Center"
  },
  {
    "diameter_inch": "7-1/2",
    "diameter_mm": "190,5",
    "Iadc_code": "731Y",
    "name": "S73B",
    "pin_size": "4-1/2 Reg",
    "flushing": "Center"
  },
  {
    "diameter_inch": "7-1/2",
    "diameter_mm": "190,5",
    "Iadc_code": "733Y",
    "name": "S73G",
    "pin_size": "4-1/2 Reg",
    "flushing": "Center"
  },
  {
    "diameter_inch": "7-1/2",
    "diameter_mm": "190,5",
    "Iadc_code": "733Y",
    "name": "S73GB",
    "pin_size": "4-1/2 Reg",
    "flushing": "Center"
  },
  {
    "diameter_inch": "7-5/8",
    "diameter_mm": "193,7",
    "Iadc_code": "211",
    "name": "S21",
    "pin_size": "4-1/2 Reg",
    "flushing": "Center"
  },
  {
    "diameter_inch": "7-5/8",
    "diameter_mm": "193,7",
    "Iadc_code": "211",
    "name": "S21B",
    "pin_size": "4-1/2 Reg",
    "flushing": "Center"
  },
  {
    "diameter_inch": "7-5/8",
    "diameter_mm": "193,7",
    "Iadc_code": "311",
    "name": "S31",
    "pin_size": "4-1/2 Reg",
    "flushing": "Center"
  },
  {
    "diameter_inch": "7-5/8",
    "diameter_mm": "193,7",
    "Iadc_code": "311",
    "name": "S31B",
    "pin_size": "4-1/2 Reg",
    "flushing": "Center"
  },
  {
    "diameter_inch": "7-5/8",
    "diameter_mm": "193,7",
    "Iadc_code": "313",
    "name": "S31G",
    "pin_size": "4-1/2 Reg",
    "flushing": "Center"
  },
  {
    "diameter_inch": "7-5/8",
    "diameter_mm": "193,7",
    "Iadc_code": "313",
    "name": "S31GB",
    "pin_size": "4-1/2 Reg",
    "flushing": "Center"
  },
  {
    "diameter_inch": "7-5/8",
    "diameter_mm": "193,7",
    "Iadc_code": "531Y",
    "name": "S53",
    "pin_size": "4-1/2 Reg",
    "flushing": "Center"
  },
  {
    "diameter_inch": "7-5/8",
    "diameter_mm": "193,7",
    "Iadc_code": "531Y",
    "name": "S53B",
    "pin_size": "4-1/2 Reg",
    "flushing": "Center"
  },
  {
    "diameter_inch": "7-5/8",
    "diameter_mm": "193,7",
    "Iadc_code": "533Y",
    "name": "S53G",
    "pin_size": "4-1/2 Reg",
    "flushing": "Center"
  },
  {
    "diameter_inch": "7-5/8",
    "diameter_mm": "193,7",
    "Iadc_code": "533Y",
    "name": "S53GB",
    "pin_size": "4-1/2 Reg",
    "flushing": "Center"
  },
  {
    "diameter_inch": "7-5/8",
    "diameter_mm": "193,7",
    "Iadc_code": "631Y",
    "name": "S63",
    "pin_size": "4-1/2 Reg",
    "flushing": "Center"
  },
  {
    "diameter_inch": "7-5/8",
    "diameter_mm": "193,7",
    "Iadc_code": "631Y",
    "name": "S63B",
    "pin_size": "4-1/2 Reg",
    "flushing": "Center"
  },
  {
    "diameter_inch": "7-5/8",
    "diameter_mm": "193,7",
    "Iadc_code": "633Y",
    "name": "S63G",
    "pin_size": "4-1/2 Reg",
    "flushing": "Center"
  },
  {
    "diameter_inch": "7-5/8",
    "diameter_mm": "193,7",
    "Iadc_code": "633Y",
    "name": "S63GB",
    "pin_size": "4-1/2 Reg",
    "flushing": "Center"
  },
  {
    "diameter_inch": "7-5/8",
    "diameter_mm": "193,7",
    "Iadc_code": "731Y",
    "name": "S73",
    "pin_size": "4-1/2 Reg",
    "flushing": "Center"
  },
  {
    "diameter_inch": "7-5/8",
    "diameter_mm": "193,7",
    "Iadc_code": "731Y",
    "name": "S73B",
    "pin_size": "4-1/2 Reg",
    "flushing": "Center"
  },
  {
    "diameter_inch": "7-5/8",
    "diameter_mm": "193,7",
    "Iadc_code": "733Y",
    "name": "S73G",
    "pin_size": "4-1/2 Reg",
    "flushing": "Center"
  },
  {
    "diameter_inch": "7-5/8",
    "diameter_mm": "193,7",
    "Iadc_code": "733Y",
    "name": "S73GB",
    "pin_size": "4-1/2 Reg",
    "flushing": "Center"
  },
  {
    "diameter_inch": "7-7/8",
    "diameter_mm": "200,0",
    "Iadc_code": "211",
    "name": "S21",
    "pin_size": "4-1/2 Reg",
    "flushing": "Center"
  },
  {
    "diameter_inch": "7-7/8",
    "diameter_mm": "200,0",
    "Iadc_code": "211",
    "name": "S21B",
    "pin_size": "4-1/2 Reg",
    "flushing": "Center"
  },
  {
    "diameter_inch": "7-7/8",
    "diameter_mm": "200,0",
    "Iadc_code": "531Y",
    "name": "S53",
    "pin_size": "4-1/2 Reg",
    "flushing": "Center"
  },
  {
    "diameter_inch": "7-7/8",
    "diameter_mm": "200,0",
    "Iadc_code": "531Y",
    "name": "S53B",
    "pin_size": "4-1/2 Reg",
    "flushing": "Center"
  },
  {
    "diameter_inch": "7-7/8",
    "diameter_mm": "200,0",
    "Iadc_code": "533Y",
    "name": "S53G",
    "pin_size": "4-1/2 Reg",
    "flushing": "Center"
  },
  {
    "diameter_inch": "7-7/8",
    "diameter_mm": "200,0",
    "Iadc_code": "533Y",
    "name": "S53GB",
    "pin_size": "4-1/2 Reg",
    "flushing": "Center"
  },
  {
    "diameter_inch": "7-7/8",
    "diameter_mm": "200,0",
    "Iadc_code": "631Y",
    "name": "S63",
    "pin_size": "4-1/2 Reg",
    "flushing": "Center"
  },
  {
    "diameter_inch": "7-7/8",
    "diameter_mm": "200,0",
    "Iadc_code": "631Y",
    "name": "S63B",
    "pin_size": "4-1/2 Reg",
    "flushing": "Center"
  },
  {
    "diameter_inch": "7-7/8",
    "diameter_mm": "200,0",
    "Iadc_code": "633Y",
    "name": "S63G",
    "pin_size": "4-1/2 Reg",
    "flushing": "Center"
  },
  {
    "diameter_inch": "7-7/8",
    "diameter_mm": "200,0",
    "Iadc_code": "633Y",
    "name": "S63GB",
    "pin_size": "4-1/2 Reg",
    "flushing": "Center"
  },
  {
    "diameter_inch": "8",
    "diameter_mm": "203,2",
    "Iadc_code": "211",
    "name": "S21",
    "pin_size": "4-1/2 Reg",
    "flushing": "Center"
  },
  {
    "diameter_inch": "8",
    "diameter_mm": "203,2",
    "Iadc_code": "211",
    "name": "S21B",
    "pin_size": "4-1/2 Reg",
    "flushing": "Center"
  },
  {
    "diameter_inch": "8",
    "diameter_mm": "203,2",
    "Iadc_code": "231",
    "name": "S23",
    "pin_size": "4-1/2 Reg",
    "flushing": "Center"
  },
  {
    "diameter_inch": "8",
    "diameter_mm": "203,2",
    "Iadc_code": "231",
    "name": "S23B",
    "pin_size": "4-1/2 Reg",
    "flushing": "Center"
  },
  {
    "diameter_inch": "8",
    "diameter_mm": "203,2",
    "Iadc_code": "233",
    "name": "S23G",
    "pin_size": "4-1/2 Reg",
    "flushing": "Center"
  },
  {
    "diameter_inch": "8",
    "diameter_mm": "203,2",
    "Iadc_code": "233",
    "name": "S23GB",
    "pin_size": "4-1/2 Reg",
    "flushing": "Center"
  },
  {
    "diameter_inch": "8",
    "diameter_mm": "203,2",
    "Iadc_code": "311",
    "name": "S31",
    "pin_size": "4-1/2 Reg",
    "flushing": "Center"
  },
  {
    "diameter_inch": "8",
    "diameter_mm": "203,2",
    "Iadc_code": "311",
    "name": "S31B",
    "pin_size": "4-1/2 Reg",
    "flushing": "Center"
  },
  {
    "diameter_inch": "8",
    "diameter_mm": "203,2",
    "Iadc_code": "313",
    "name": "S31G",
    "pin_size": "4-1/2 Reg",
    "flushing": "Center"
  },
  {
    "diameter_inch": "8",
    "diameter_mm": "203,2",
    "Iadc_code": "313",
    "name": "S31GB",
    "pin_size": "4-1/2 Reg",
    "flushing": "Center"
  },
  {
    "diameter_inch": "8-3/8",
    "diameter_mm": "212,7",
    "Iadc_code": "211",
    "name": "S21",
    "pin_size": "4-1/2 Reg",
    "flushing": "Center"
  },
  {
    "diameter_inch": "8-3/8",
    "diameter_mm": "212,7",
    "Iadc_code": "211",
    "name": "S21B",
    "pin_size": "4-1/2 Reg",
    "flushing": "Center"
  },
  {
    "diameter_inch": "8-1/2",
    "diameter_mm": "215,9",
    "Iadc_code": "211",
    "name": "S21",
    "pin_size": "4-1/2 Reg",
    "flushing": "Center"
  },
  {
    "diameter_inch": "8-1/2",
    "diameter_mm": "215,9",
    "Iadc_code": "211",
    "name": "S21B",
    "pin_size": "4-1/2 Reg",
    "flushing": "Center"
  },
  {
    "diameter_inch": "8-1/2",
    "diameter_mm": "215,9",
    "Iadc_code": "311",
    "name": "S31",
    "pin_size": "4-1/2 Reg",
    "flushing": "Center"
  },
  {
    "diameter_inch": "8-1/2",
    "diameter_mm": "215,9",
    "Iadc_code": "311",
    "name": "S31B",
    "pin_size": "4-1/2 Reg",
    "flushing": "Center"
  },
  {
    "diameter_inch": "8-1/2",
    "diameter_mm": "215,9",
    "Iadc_code": "313",
    "name": "S31G",
    "pin_size": "4-1/2 Reg",
    "flushing": "Center"
  },
  {
    "diameter_inch": "8-1/2",
    "diameter_mm": "215,9",
    "Iadc_code": "313",
    "name": "S31GB",
    "pin_size": "4-1/2 Reg",
    "flushing": "Center"
  },
  {
    "diameter_inch": "8-1/2",
    "diameter_mm": "215,9",
    "Iadc_code": "531Y",
    "name": "S53",
    "pin_size": "4-1/2 Reg",
    "flushing": "Center"
  },
  {
    "diameter_inch": "8-1/2",
    "diameter_mm": "215,9",
    "Iadc_code": "531Y",
    "name": "S53B",
    "pin_size": "4-1/2 Reg",
    "flushing": "Center"
  },
  {
    "diameter_inch": "8-1/2",
    "diameter_mm": "215,9",
    "Iadc_code": "533Y",
    "name": "S53G",
    "pin_size": "4-1/2 Reg",
    "flushing": "Center"
  },
  {
    "diameter_inch": "8-1/2",
    "diameter_mm": "215,9",
    "Iadc_code": "533Y",
    "name": "S53GB",
    "pin_size": "4-1/2 Reg",
    "flushing": "Center"
  },
  {
    "diameter_inch": "8-1/2",
    "diameter_mm": "215,9",
    "Iadc_code": "631Y",
    "name": "S63",
    "pin_size": "4-1/2 Reg",
    "flushing": "Center"
  },
  {
    "diameter_inch": "8-1/2",
    "diameter_mm": "215,9",
    "Iadc_code": "631Y",
    "name": "S63B",
    "pin_size": "4-1/2 Reg",
    "flushing": "Center"
  },
  {
    "diameter_inch": "8-1/2",
    "diameter_mm": "215,9",
    "Iadc_code": "633Y",
    "name": "S63G",
    "pin_size": "4-1/2 Reg",
    "flushing": "Center"
  },
  {
    "diameter_inch": "8-1/2",
    "diameter_mm": "215,9",
    "Iadc_code": "633Y",
    "name": "S63GB",
    "pin_size": "4-1/2 Reg",
    "flushing": "Center"
  },
  {
    "diameter_inch": "8-1/2",
    "diameter_mm": "215,9",
    "Iadc_code": "731Y",
    "name": "S73",
    "pin_size": "4-1/2 Reg",
    "flushing": "Center"
  },
  {
    "diameter_inch": "8-1/2",
    "diameter_mm": "215,9",
    "Iadc_code": "731Y",
    "name": "S73B",
    "pin_size": "4-1/2 Reg",
    "flushing": "Center"
  },
  {
    "diameter_inch": "8-1/2",
    "diameter_mm": "215,9",
    "Iadc_code": "733Y",
    "name": "S73G",
    "pin_size": "4-1/2 Reg",
    "flushing": "Center"
  },
  {
    "diameter_inch": "8-1/2",
    "diameter_mm": "215,9",
    "Iadc_code": "733Y",
    "name": "S73GB",
    "pin_size": "4-1/2 Reg",
    "flushing": "Center"
  },
  {
    "diameter_inch": "8-5/8",
    "diameter_mm": "219,1",
    "Iadc_code": "211",
    "name": "S21",
    "pin_size": "4-1/2 Reg",
    "flushing": "Center"
  },
  {
    "diameter_inch": "8-5/8",
    "diameter_mm": "219,1",
    "Iadc_code": "211",
    "name": "S21B",
    "pin_size": "4-1/2 Reg",
    "flushing": "Center"
  },
  {
    "diameter_inch": "8-3/4",
    "diameter_mm": "222,3",
    "Iadc_code": "211",
    "name": "S21",
    "pin_size": "4-1/2 Reg",
    "flushing": "Center"
  },
  {
    "diameter_inch": "8-3/4",
    "diameter_mm": "222,3",
    "Iadc_code": "211",
    "name": "S21B",
    "pin_size": "4-1/2 Reg",
    "flushing": "Center"
  },
  {
    "diameter_inch": "9-3/8",
    "diameter_mm": "238,1",
    "Iadc_code": "211",
    "name": "S21",
    "pin_size": "4-1/2 Reg",
    "flushing": "Center"
  },
  {
    "diameter_inch": "9-3/8",
    "diameter_mm": "238,1",
    "Iadc_code": "211",
    "name": "S21B",
    "pin_size": "4-1/2 Reg",
    "flushing": "Center"
  },
  {
    "diameter_inch": "9-1/2",
    "diameter_mm": "241,3",
    "Iadc_code": "211",
    "name": "S21",
    "pin_size": "4-1/2 Reg",
    "flushing": "Center"
  },
  {
    "diameter_inch": "9-1/2",
    "diameter_mm": "241,3",
    "Iadc_code": "211",
    "name": "S21B",
    "pin_size": "4-1/2 Reg",
    "flushing": "Center"
  },
  {
    "diameter_inch": "9-1/2",
    "diameter_mm": "241,3",
    "Iadc_code": "641Y",
    "name": "S64",
    "pin_size": "4-1/2 Reg",
    "flushing": "Center"
  },
  {
    "diameter_inch": "9-1/2",
    "diameter_mm": "241,3",
    "Iadc_code": "641Y",
    "name": "S64B",
    "pin_size": "4-1/2 Reg",
    "flushing": "Center"
  },
  {
    "diameter_inch": "9-1/2",
    "diameter_mm": "241,3",
    "Iadc_code": "643Y",
    "name": "S64G",
    "pin_size": "4-1/2 Reg",
    "flushing": "Center"
  },
  {
    "diameter_inch": "9-1/2",
    "diameter_mm": "241,3",
    "Iadc_code": "643Y",
    "name": "S64GB",
    "pin_size": "4-1/2 Reg",
    "flushing": "Center"
  }
]